﻿Log file open, 07/08/17 16:27:14
LogInit:Display: Running engine for game: inventoryWithUMG
LogPlatformFile: Not using cached read wrapper
LogInit:Display: RandInit(-1670572906) SRandInit(-1670572906).
LogTaskGraph: Started task graph with 5 named threads and 6 total threads with 1 sets of task threads.
LogStats: Stats thread started at 0.076682
LogInit: Using libcurl 7.47.1
LogInit:  - built for x86_64-pc-win32
LogInit:  - supports SSL with OpenSSL/1.0.2g
LogInit:  - supports HTTP deflate (compression) using libz 1.2.8
LogInit:  - other features:
LogInit:      CURL_VERSION_SSL
LogInit:      CURL_VERSION_LIBZ
LogInit:      CURL_VERSION_IPV6
LogInit:      CURL_VERSION_ASYNCHDNS
LogInit:      CURL_VERSION_LARGEFILE
LogInit:      CURL_VERSION_IDN
LogInit:  CurlRequestOptions (configurable via config and command line):
LogInit:  - bVerifyPeer = false  - Libcurl will NOT verify peer certificate
LogInit:  - bUseHttpProxy = false  - Libcurl will NOT use HTTP proxy
LogInit:  - bDontReuseConnections = false  - Libcurl will reuse connections
LogInit:  - CertBundlePath = nullptr  - Libcurl will use whatever was configured at build time.
LogInit: Build: ++UE4+Release-4.16-CL-3466753
LogInit: Engine Version: 4.16.1-3466753+++UE4+Release-4.16
LogInit: Compatible Engine Version: 4.16.0-3452394+++UE4+Release-4.16
LogInit: Net CL: 3452394
LogDevObjectVersion: Number of dev versions registered: 16
LogDevObjectVersion:   Dev-Blueprints (B0D832E4-1F89-4F0D-ACCF-7EB736FD4AA2): 9
LogDevObjectVersion:   Dev-Build (E1C64328-A22C-4D53-A36C-8E866417BD8C): 0
LogDevObjectVersion:   Dev-Core (375EC13C-06E4-48FB-B500-84F0262A717E): 2
LogDevObjectVersion:   Dev-Editor (E4B068ED-F494-42E9-A231-DA0B2E46BB41): 17
LogDevObjectVersion:   Dev-Framework (CFFC743F-43B0-4480-9391-14DF171D2073): 23
LogDevObjectVersion:   Dev-Mobile (B02B49B5-BB20-44E9-A304-32B752E40360): 0
LogDevObjectVersion:   Dev-Networking (A4E4105C-59A1-49B5-A7C5-40C4547EDFEE): 0
LogDevObjectVersion:   Dev-Online (39C831C9-5AE6-47DC-9A44-9C173E1C8E7C): 0
LogDevObjectVersion:   Dev-Physics (78F01B33-EBEA-4F98-B9B4-84EACCB95AA2): 0
LogDevObjectVersion:   Dev-Platform (6631380F-2D4D-43E0-8009-CF276956A95A): 0
LogDevObjectVersion:   Dev-Rendering (12F88B9F-8875-4AFC-A67C-D90C383ABD29): 15
LogDevObjectVersion:   Dev-Sequencer (7B5AE74C-D270-4C10-A958-57980B212A5A): 4
LogDevObjectVersion:   Dev-VR (D7296918-1DD6-4BDD-9DE2-64A83CC13884): 0
LogDevObjectVersion:   Dev-LoadTimes (C2A15278-BFE7-4AFE-6C17-90FF531DF755): 1
LogDevObjectVersion:   Private-Geometry (6EACA3D4-40EC-4CC1-B786-8BED09428FC5): 1
LogDevObjectVersion:   Dev-AnimPhys (29E575DD-E0A3-4627-9D10-D276232CDCEA): 3
LogInit: Compiled (64-bit): May 31 2017 02:03:30
LogInit: Compiled with Visual C++: 19.00.24215.01
LogInit: Build Configuration: Development
LogInit: Branch Name: ++UE4+Release-4.16
LogInit: Command line:  
LogInit: Base directory: E:/Epic Games/UE_4.16/Engine/Binaries/Win64/
LogInit: Installed Engine Build: 1
LogInit: Presizing for max 8388607 objects, including 0 objects not considered by GC, pre-allocating 0 bytes for permanent pool.
LogInit: Object subsystem initialized
[2017.07.08-08.27.15:531][  0]LogInit: Selected Device Profile: [Windows]
[2017.07.08-08.27.15:531][  0]LogInit: Applying CVar settings loaded from the selected device profile: [Windows]
[2017.07.08-08.27.15:573][  0]LogInit: Computer: LENOVO-PC
[2017.07.08-08.27.15:573][  0]LogInit: User: 林靖清
[2017.07.08-08.27.15:573][  0]LogInit: CPU Page size=4096, Cores=2
[2017.07.08-08.27.15:573][  0]LogInit: High frequency timer resolution =2.143475 MHz
[2017.07.08-08.27.15:574][  0]LogMemory: Memory total: Physical=7.9GB (8GB approx)
[2017.07.08-08.27.15:574][  0]LogMemory: Platform Memory Stats for Windows
[2017.07.08-08.27.15:574][  0]LogMemory: Process Physical Memory: 273.25 MB used, 273.25 MB peak
[2017.07.08-08.27.15:574][  0]LogMemory: Process Virtual Memory: 266.44 MB used, 266.44 MB peak
[2017.07.08-08.27.15:574][  0]LogMemory: Physical Memory: 4362.29 MB used,  3748.64 MB free, 8110.94 MB total
[2017.07.08-08.27.15:574][  0]LogMemory: Virtual Memory: 642.39 MB used,  3748.64 MB free, 134217728.00 MB total
[2017.07.08-08.27.15:662][  0]LogInit: Overriding language with editor language configuration option (en).
[2017.07.08-08.27.15:662][  0]LogInit: Overriding locale with editor locale configuration option (en).
[2017.07.08-08.27.16:976][  0]LogD3D11RHI: D3D11 adapters:
[2017.07.08-08.27.16:992][  0]LogD3D11RHI:    0. 'AMD Radeon (TM) R5 M330' (Feature Level 11_0)
[2017.07.08-08.27.16:992][  0]LogD3D11RHI:       2039/0/4055 MB DedicatedVideo/DedicatedSystem/SharedSystem, Outputs:1, VendorId:0x1002
[2017.07.08-08.27.16:998][  0]LogD3D11RHI:    1. 'Intel(R) HD Graphics 5500' (Feature Level 11_0)
[2017.07.08-08.27.16:998][  0]LogD3D11RHI:       128/0/4055 MB DedicatedVideo/DedicatedSystem/SharedSystem, Outputs:0, VendorId:0x8086
[2017.07.08-08.27.17:000][  0]LogD3D11RHI:    2. 'Microsoft Basic Render Driver' (Feature Level 11_0)
[2017.07.08-08.27.17:000][  0]LogD3D11RHI:       0/0/4055 MB DedicatedVideo/DedicatedSystem/SharedSystem, Outputs:0, VendorId:0x1414
[2017.07.08-08.27.17:000][  0]LogD3D11RHI: Chosen D3D11 Adapter: 0
[2017.07.08-08.27.17:009][  0]LogD3D11RHI: Creating new Direct3DDevice
[2017.07.08-08.27.17:009][  0]LogD3D11RHI:     GPU DeviceId: 0x6660 (for the marketing name, search the web for "GPU Device Id")
[2017.07.08-08.27.17:009][  0]LogWindows: EnumDisplayDevices:
[2017.07.08-08.27.17:009][  0]LogWindows:    0. 'Intel(R) HD Graphics 5500' (P:1 D:1)
[2017.07.08-08.27.17:010][  0]LogWindows:    1. 'Intel(R) HD Graphics 5500' (P:0 D:0)
[2017.07.08-08.27.17:010][  0]LogWindows:    2. 'Intel(R) HD Graphics 5500' (P:0 D:0)
[2017.07.08-08.27.17:010][  0]LogWindows: DebugString: PrimaryIsNotTheChoosenAdapter PrimaryIsNotTheChoosenAdapter PrimaryIsNotTheChoosenAdapter FoundDriverCount:0 
[2017.07.08-08.27.17:010][  0]LogD3D11RHI:     Adapter Name: AMD Radeon (TM) R5 M330
[2017.07.08-08.27.17:010][  0]LogD3D11RHI:   Driver Version: Unknown (internal:Unknown, unified:Unknown)
[2017.07.08-08.27.17:010][  0]LogD3D11RHI:      Driver Date: Unknown
[2017.07.08-08.27.17:010][  0]LogRHI: Texture pool is 1361 MB (70% of 1945 MB)
[2017.07.08-08.27.17:034][  0]LogD3D11RHI: Async texture creation enabled
[2017.07.08-08.27.17:047][  0]LogD3D11RHI: GPU Timing Frequency: 27.000000 (Debug: 2 1)
[2017.07.08-08.27.17:048][  0]LogShaderCompilers: Guid format shader working directory is -5 characters bigger than the processId version (D:/admin/Documents/Unreal Projects/inventoryWithUMG/Intermediate/Shaders/WorkingDirectory/9540/).
[2017.07.08-08.27.17:048][  0]LogShaderCompilers: Cleaned the shader compiler working directory 'C:/Users/admin/AppData/Local/Temp/UnrealShaderWorkingDir/2228CC2844112878464AFFBBCA2C868E/'.
[2017.07.08-08.27.17:048][  0]LogShaderCompilers:Display: Using Local Shader Compiler.
[2017.07.08-08.27.18:776][  0]LogTemp:Display: Loaded TP AllDesktopTargetPlatform
[2017.07.08-08.27.18:834][  0]LogTemp:Display: Loaded TP MacClientTargetPlatform
[2017.07.08-08.27.18:884][  0]LogTemp:Display: Loaded TP MacNoEditorTargetPlatform
[2017.07.08-08.27.18:942][  0]LogTemp:Display: Loaded TP MacServerTargetPlatform
[2017.07.08-08.27.18:995][  0]LogTemp:Display: Loaded TP MacTargetPlatform
[2017.07.08-08.27.19:057][  0]LogTemp:Display: Loaded TP WindowsClientTargetPlatform
[2017.07.08-08.27.19:111][  0]LogTemp:Display: Loaded TP WindowsNoEditorTargetPlatform
[2017.07.08-08.27.19:161][  0]LogTemp:Display: Loaded TP WindowsServerTargetPlatform
[2017.07.08-08.27.19:208][  0]LogTemp:Display: Loaded TP WindowsTargetPlatform
[2017.07.08-08.27.19:263][  0]LogTemp:Display: Loaded TP AndroidTargetPlatform
[2017.07.08-08.27.19:315][  0]LogTemp:Display: Loaded TP Android_ASTCTargetPlatform
[2017.07.08-08.27.19:365][  0]LogTemp:Display: Loaded TP Android_ATCTargetPlatform
[2017.07.08-08.27.19:437][  0]LogTemp:Display: Loaded TP Android_DXTTargetPlatform
[2017.07.08-08.27.19:508][  0]LogTemp:Display: Loaded TP Android_ETC1TargetPlatform
[2017.07.08-08.27.19:586][  0]LogTemp:Display: Loaded TP Android_ETC2TargetPlatform
[2017.07.08-08.27.19:710][  0]LogTemp:Display: Loaded TP Android_MultiTargetPlatform
[2017.07.08-08.27.19:710][  0]LogTemp:Display: Loaded TP Android_PVRTCTargetPlatform
[2017.07.08-08.27.19:761][  0]LogTemp:Display: Loaded TP HTML5TargetPlatform
[2017.07.08-08.27.19:870][  0]LogTemp:Display: Loaded TP IOSTargetPlatform
[2017.07.08-08.27.19:910][  0]LogTemp:Display: Loaded TP TVOSTargetPlatform
[2017.07.08-08.27.19:974][  0]LogTemp:Display: Loaded TP LinuxClientTargetPlatform
[2017.07.08-08.27.20:034][  0]LogTemp:Display: Loaded TP LinuxNoEditorTargetPlatform
[2017.07.08-08.27.20:086][  0]LogTemp:Display: Loaded TP LinuxServerTargetPlatform
[2017.07.08-08.27.20:139][  0]LogTemp:Display: Loaded TP LinuxTargetPlatform
[2017.07.08-08.27.20:139][  0]LogTargetPlatformManager:Display: Building Assets For Windows
[2017.07.08-08.27.20:734][  0]LogDerivedDataCache:Display: Max Cache Size: 512 MB
[2017.07.08-08.27.20:883][  0]LogDerivedDataCache: Loaded boot cache 0.15s 90MB C:/Users/admin/AppData/Local/UnrealEngine/4.16/DerivedDataCache/Boot.ddc.
[2017.07.08-08.27.20:883][  0]LogDerivedDataCache:Display: Loaded Boot cache: C:/Users/admin/AppData/Local/UnrealEngine/4.16/DerivedDataCache/Boot.ddc
[2017.07.08-08.27.20:883][  0]LogDerivedDataCache: FDerivedDataBackendGraph:  Pak pak cache file D:/admin/Documents/Unreal Projects/inventoryWithUMG/DerivedDataCache/DDC.ddp not found, will not use a pak cache.
[2017.07.08-08.27.20:883][  0]LogDerivedDataCache: Unable to find inner node Pak for hierarchical cache Hierarchy.
[2017.07.08-08.27.20:883][  0]LogDerivedDataCache: FDerivedDataBackendGraph:  CompressedPak pak cache file D:/admin/Documents/Unreal Projects/inventoryWithUMG/DerivedDataCache/Compressed.ddp not found, will not use a pak cache.
[2017.07.08-08.27.20:883][  0]LogDerivedDataCache: Unable to find inner node CompressedPak for hierarchical cache Hierarchy.
[2017.07.08-08.27.20:906][  0]LogDerivedDataCache:Display: Pak cache opened for reading ../../../Engine/DerivedDataCache/Compressed.ddp.
[2017.07.08-08.27.20:918][  0]LogDerivedDataCache: Using Local data cache path C:/Users/admin/AppData/Local/UnrealEngine/Common/DerivedDataCache: Writable
[2017.07.08-08.27.20:934][  0]LogMaterial: Verifying Global Shaders for PCD3D_SM5
[2017.07.08-08.27.20:935][  0]LogSlate: Using Freetype 2.6.0
[2017.07.08-08.27.20:935][  0]LogSlate: SlateFontCache - WITH_FREETYPE: 1, WITH_HARFBUZZ: 1
[2017.07.08-08.27.20:935][  0]LogSlate: SlateFontCache - WITH_FREETYPE: 1, WITH_HARFBUZZ: 1
[2017.07.08-08.27.21:382][  0]LogInit: Selected Device Profile: [Windows]
[2017.07.08-08.27.21:515][  0]LogContentStreaming: Texture pool size is 0.00 MB
[2017.07.08-08.27.21:724][  0]LogMeshUtilities: Using QuadricMeshReduction for automatic static mesh reduction
[2017.07.08-08.27.21:770][  0]LogSimplygon: Simplygon DLL not present - disabling.
[2017.07.08-08.27.21:832][  0]LogMeshUtilities: Using SimplygonSwarm for distributed automatic mesh merging
[2017.07.08-08.27.21:832][  0]LogMeshUtilities: No automatic skeletal mesh reduction module available
[2017.07.08-08.27.21:832][  0]LogMeshUtilities: No automatic mesh merging module available
[2017.07.08-08.27.22:602][  0]LogNetVersion: inventoryWithUMG , NetCL: 3452394, EngineNetVer: 2, GameNetVer: 0 (Checksum: 29554268)
[2017.07.08-08.27.22:677][  0]LogAssetRegistry: FAssetRegistry took 0.0268 seconds to start up
[2017.07.08-08.27.22:800][  0]LogPackageLocalizationCache: Processed 4 localized package path(s) for 1 prioritized culture(s) in 0.071262 seconds
[2017.07.08-08.27.22:808][  0]LogUObjectArray: 34194 objects as part of root set at end of initial load.
[2017.07.08-08.27.22:808][  0]LogUObjectAllocator: 7260424 out of 0 bytes used by permanent object pool.
[2017.07.08-08.27.22:808][  0]LogUObjectArray: CloseDisregardForGC: 0/0 objects in disregard for GC pool
[2017.07.08-08.27.22:880][  0]LogInit: WinSock: version 1.1 (2.2), MaxSocks=32767, MaxUdp=65467
[2017.07.08-08.27.26:453][  0]LogTcpMessaging: Initializing TcpMessaging bridge
[2017.07.08-08.27.26:505][  0]LogUdpMessaging: Initializing bridge on interface 0.0.0.0:0 to multicast group 230.0.0.1:6666.
[2017.07.08-08.27.26:505][  0]FUdpSocketBuilder: Failed to bind UdpMessageMulticastSocket to 0.0.0.0:6666
[2017.07.08-08.27.26:505][  0]FUdpSocketBuilder: Failed to configure multicast for UdpMessageMulticastSocket (loopback: 1, ttl: 1)
[2017.07.08-08.27.26:505][  0]FUdpSocketBuilder: Failed to create and initialize socket UdpMessageMulticastSocket (last error: 0)
[2017.07.08-08.27.26:506][  0]LogUdpMessaging:Warning: StartTransport failed to create multicast socket on 0.0.0.0:0, joined to 230.0.0.1:6666 with TTL 1
[2017.07.08-08.27.27:223][  0]LogMaterial: Uniform references updated for custom material expression Custom.
[2017.07.08-08.27.27:744][  0]SourceControl: Info Source control is disabled
[2017.07.08-08.27.27:745][  0]SourceControl: Info Source control is disabled
[2017.07.08-08.27.27:790][  0]SourceControl: Info Source control is disabled
[2017.07.08-08.27.27:838][  0]SourceControl: Info Source control is disabled
[2017.07.08-08.27.28:265][  0]LogLinker:Warning: Can't find file '/Game/ThirdPersonBP/ThirdPersonOverview'
[2017.07.08-08.27.28:265][  0]LogLinker:Warning: Can't find file '/Game/ThirdPersonBP/ThirdPersonOverview'
[2017.07.08-08.27.28:265][  0]LogUObjectGlobals:Warning: Failed to find object 'Class /Game/ThirdPersonBP/ThirdPersonOverview.ThirdPersonOverview_C'
[2017.07.08-08.27.28:704][  0]LogAndroidPermission: UAndroidPermissionCallbackProxy::GetInstance
[2017.07.08-08.27.29:356][  0]LogEngine: Initializing Engine...
[2017.07.08-08.27.29:356][  0]LogHMD: Failed to initialize OpenVR with code 110
[2017.07.08-08.27.29:673][  0]LogStats: UGameplayTagsManager::ConstructGameplayTagTree: Construct from data asset -  0.000 s
[2017.07.08-08.27.29:673][  0]LogStats: UGameplayTagsManager::ConstructGameplayTagTree: GameplayTagTreeChangedEvent.Broadcast -  0.000 s
[2017.07.08-08.27.29:884][  0]LogAIModule: Creating AISystem for world Untitled
[2017.07.08-08.27.29:891][  0]LogInit: XAudio2 using '扬声器 (Realtek High Definition Audio)' : 2 channels at 48 kHz using 32 bits per sample (channel mask 0x3)
[2017.07.08-08.27.29:916][  0]LogInit: FAudioDevice initialized.
[2017.07.08-08.27.29:977][  0]LogDerivedDataCache: Saved boot cache 0.06s 90MB C:/Users/admin/AppData/Local/UnrealEngine/4.16/DerivedDataCache/Boot.ddc.
[2017.07.08-08.27.29:989][  0]LogInit: Texture streaming: Enabled
[2017.07.08-08.27.30:079][  0]LogEngineSessionManager: EngineSessionManager initialized
[2017.07.08-08.27.30:506][  0]LogInit: Transaction tracking system initialized
[2017.07.08-08.27.31:011][  0]BlueprintLog: New page: Editor Load
[2017.07.08-08.27.32:704][  0]LocalizationService: Info Localization service is disabled
[2017.07.08-08.27.33:692][  0]LogConsoleResponse:Display: 
[2017.07.08-08.27.34:004][  0]LogCook:Display: Max memory allowance for cook 16384mb min free memory 0mb
[2017.07.08-08.27.34:004][  0]LogCook:Display: Mobile HDR setting 1
[2017.07.08-08.27.34:047][  0]LogFileCache: Scanning file cache for directory 'D:/admin/Documents/Unreal Projects/inventoryWithUMG/Content/' took 0.02s
[2017.07.08-08.27.35:625][  0]SourceControl: Info Source control is disabled
[2017.07.08-08.27.35:625][  0]Cmd: MAP LOAD FILE="D:/admin/Documents/Unreal Projects/inventoryWithUMG/Content/FirstPersonBP/Maps/FirstPersonExampleMap.umap" TEMPLATE=0 SHOWPROGRESS=1 FEATURELEVEL=3
[2017.07.08-08.27.35:626][  0]LightingResults: New page: Lighting Build
[2017.07.08-08.27.35:785][  0]MapCheck: New page: Map Check
[2017.07.08-08.27.35:785][  0]LightingResults: New page: Lighting Build
[2017.07.08-08.27.45:948][  0]LogAIModule: Creating AISystem for world FirstPersonExampleMap
[2017.07.08-08.27.46:005][  0]LogEditorServer: Finished looking for orphan Actors (0.000 secs)
[2017.07.08-08.27.46:060][  0]Cmd: MAP CHECKDEP NOCLEARLOG
[2017.07.08-08.27.46:128][  0]MapCheck: Info Map check complete: 0 Error(s), 0 Warning(s), took 67.571ms to complete.
[2017.07.08-08.27.46:128][  0]LogFileHelpers: Loading map 'FirstPersonExampleMap' took 10.503
[2017.07.08-08.27.46:322][  0]LogCollectionManager: Loaded 0 collections in 0.001178 seconds
[2017.07.08-08.27.46:403][  0]LogFileCache: Scanning file cache for directory 'D:/admin/Documents/Unreal Projects/inventoryWithUMG/Saved/Collections/' took 0.01s
[2017.07.08-08.27.46:403][  0]LogFileCache: Scanning file cache for directory 'D:/admin/Documents/Unreal Projects/inventoryWithUMG/Content/Developers/林靖清/Collections/' took 0.01s
[2017.07.08-08.27.46:403][  0]LogFileCache: Scanning file cache for directory 'D:/admin/Documents/Unreal Projects/inventoryWithUMG/Content/Collections/' took 0.01s
[2017.07.08-08.27.46:403][  0]LogCollectionManager: Rebuilt the GUID cache for 0 collections in 0.000002 seconds
[2017.07.08-08.27.46:415][  0]LogContentBrowser: Native class hierarchy populated in 0.0123 seconds. Added 2329 classes and 491 folders.
[2017.07.08-08.27.46:485][  0]LogContentBrowser: Native class hierarchy updated for 'WidgetCarousel' in 0.0009 seconds. Added 0 classes and 0 folders.
[2017.07.08-08.27.46:532][  0]LogContentBrowser: Native class hierarchy updated for 'AddContentDialog' in 0.0010 seconds. Added 0 classes and 0 folders.
[2017.07.08-08.27.46:576][  0]LogContentBrowser: Native class hierarchy updated for 'SceneOutliner' in 0.0011 seconds. Added 1 classes and 2 folders.
[2017.07.08-08.27.46:632][  0]LogCrashTracker: Crashtracker disabled due to settings.
[2017.07.08-08.27.46:640][  0]LogUObjectGlobals:Warning: Failed to find object 'Class None.'
[2017.07.08-08.27.46:721][  0]LogContentBrowser: Native class hierarchy updated for 'HierarchicalLODOutliner' in 0.0010 seconds. Added 1 classes and 2 folders.
[2017.07.08-08.27.46:722][  0]LogLoad: (Engine Initialization) Total time: 33.57 seconds
[2017.07.08-08.27.46:722][  0]LogLoad: (Engine Initialization) Total Blueprint compile time: 0.46 seconds
[2017.07.08-08.27.46:722][  0]LogExternalProfiler: Found external profiler: VSPerf
[2017.07.08-08.27.46:722][  0]LogExternalProfiler: Using external profiler: VSPerf
[2017.07.08-08.27.47:061][  0]LogOcInput: OculusInput pre-init called
[2017.07.08-08.27.47:061][  0]LogHMD: Starting GearVRController plugin
[2017.07.08-08.27.47:081][  0]LogContentStreaming: Texture pool size now 800 MB
[2017.07.08-08.27.47:083][  0]LogSlate: Took 0.000914 seconds to synchronously load lazily loaded font '../../../Engine/Content/Slate/Fonts/Roboto-Regular.ttf' (155K)
[2017.07.08-08.27.47:086][  0]LogSlate: Took 0.000248 seconds to synchronously load lazily loaded font '../../../Engine/Content/Slate/Fonts/Roboto-Bold.ttf' (160K)
[2017.07.08-08.27.47:092][  0]LogSlate: Took 0.000251 seconds to synchronously load lazily loaded font '../../../Engine/Content/Editor/Slate/Fonts/FontAwesome.ttf' (139K)
[2017.07.08-08.27.47:395][  1]LogRenderer: Reallocating scene render targets to support 652x360 NumSamples 1 (Frame:1).
[2017.07.08-08.27.47:749][  2]LogAssetRegistry: Asset discovery search completed in 25.0927 seconds
[2017.07.08-08.27.47:753][  2]LogCollectionManager: Rebuilt the object cache for 0 collections in 0.000001 seconds (found 0 objects)
[2017.07.08-08.27.47:753][  2]LogCollectionManager: Fixed up redirectors for 0 collections in 0.000072 seconds (updated 0 objects)
[2017.07.08-08.27.48:082][  3]LogSlate: Took 0.000222 seconds to synchronously load lazily loaded font '../../../Engine/Content/Slate/Fonts/Roboto-Light.ttf' (159K)
[2017.07.08-08.28.52:663][555]LogSlate: Took 0.000354 seconds to synchronously load lazily loaded font '../../../Engine/Content/Slate/Fonts/Roboto-Light.ttf' (159K)
[2017.07.08-08.28.53:193][555]LogContentBrowser: Native class hierarchy updated for 'BlueprintGraph' in 0.0015 seconds. Added 112 classes and 0 folders.
[2017.07.08-08.28.54:058][555]LogSlate: Took 0.000284 seconds to synchronously load lazily loaded font '../../../Engine/Content/Editor/Slate/Fonts/Roboto-BoldCondensed.ttf' (158K)
[2017.07.08-08.28.55:981][649]LogSlate: Took 0.003264 seconds to synchronously load lazily loaded font '../../../Engine/Content/Slate/Fonts/DroidSansFallback.ttf' (3848K)
[2017.07.08-08.28.57:442][731]LogSlate: Took 0.000273 seconds to synchronously load lazily loaded font '../../../Engine/Content/Editor/Slate/Fonts/Roboto-Italic.ttf' (157K)
[2017.07.08-08.37.47:298][253]LogFileHelpers: Editor autosave (incl. sublevels) for '/Game/FirstPersonBP/Maps/FirstPersonExampleMap' took 0.280
[2017.07.08-08.37.47:304][253]OBJ SavePackage: Generating thumbnails for [0] asset(s) in package [/Game/UMG/GameHUD] ([1] browsable assets)...
[2017.07.08-08.37.47:304][253]OBJ SavePackage: Finished generating thumbnails for package [/Game/UMG/GameHUD]
[2017.07.08-08.37.47:304][253]Cmd: OBJ SAVEPACKAGE PACKAGE="/Game/UMG/GameHUD" FILE="D:/admin/Documents/Unreal Projects/inventoryWithUMG/Saved/Autosaves/Game/UMG/GameHUD_Auto1.uasset" SILENT=false AUTOSAVING=true
[2017.07.08-08.37.47:683][253]LogSavePackage: Save=232.62ms
[2017.07.08-08.37.47:683][253]LogSavePackage: Moving 'D:/admin/Documents/Unreal Projects/inventoryWithUMG/Saved/GameHUD_Auto156CAC6A6474338D2F59CFEAC98728482.tmp' to 'D:/admin/Documents/Unreal Projects/inventoryWithUMG/Saved/Autosaves/Game/UMG/GameHUD_Auto1.uasset'
[2017.07.08-08.37.47:715][253]LogSavePackage:Display: Finished SavePackage D:/admin/Documents/Unreal Projects/inventoryWithUMG/Saved/Autosaves/Game/UMG/GameHUD_Auto1.uasset
[2017.07.08-08.37.47:715][253]LogFileHelpers: Auto-saving content packages took 0.415
[2017.07.08-08.49.19:246][933]LogFileHelpers: Editor autosave (incl. sublevels) for '/Game/FirstPersonBP/Maps/FirstPersonExampleMap' took 0.251
[2017.07.08-08.49.19:254][933]OBJ SavePackage: Generating thumbnails for [0] asset(s) in package [/Game/UMG/GameHUD] ([1] browsable assets)...
[2017.07.08-08.49.19:254][933]OBJ SavePackage: Finished generating thumbnails for package [/Game/UMG/GameHUD]
[2017.07.08-08.49.19:254][933]Cmd: OBJ SAVEPACKAGE PACKAGE="/Game/UMG/GameHUD" FILE="D:/admin/Documents/Unreal Projects/inventoryWithUMG/Saved/Autosaves/Game/UMG/GameHUD_Auto2.uasset" SILENT=false AUTOSAVING=true
[2017.07.08-08.49.19:538][933]LogSavePackage: Save=271.75ms
[2017.07.08-08.49.19:538][933]LogSavePackage: Moving 'D:/admin/Documents/Unreal Projects/inventoryWithUMG/Saved/GameHUD_Auto29173347148BA3071F64091860BBD0EF7.tmp' to 'D:/admin/Documents/Unreal Projects/inventoryWithUMG/Saved/Autosaves/Game/UMG/GameHUD_Auto2.uasset'
[2017.07.08-08.49.19:589][933]LogSavePackage:Display: Finished SavePackage D:/admin/Documents/Unreal Projects/inventoryWithUMG/Saved/Autosaves/Game/UMG/GameHUD_Auto2.uasset
[2017.07.08-08.49.19:589][933]LogFileHelpers: Auto-saving content packages took 0.340
[2017.07.08-08.49.44:882][ 63]LogTemp: Repeting last play command: Selected Viewport
[2017.07.08-08.49.45:155][ 63]LogBlueprintUserMessages: Early PlayInEditor Detection: Level '/Game/FirstPersonBP/Maps/FirstPersonExampleMap.FirstPersonExampleMap:PersistentLevel' has LevelScriptBlueprint '/Game/FirstPersonBP/Maps/FirstPersonExampleMap.FirstPersonExampleMap:PersistentLevel.FirstPersonExampleMap' with GeneratedClass '/Game/FirstPersonBP/Maps/FirstPersonExampleMap.FirstPersonExampleMap_C' with ClassGeneratedBy '/Game/FirstPersonBP/Maps/FirstPersonExampleMap.FirstPersonExampleMap:PersistentLevel.FirstPersonExampleMap'
[2017.07.08-08.49.45:194][ 63]LogPlayLevel: PlayLevel: No blueprints needed recompiling
[2017.07.08-08.49.45:283][ 63]PIE: New page: PIE session: FirstPersonExampleMap (Jul 9, 2017, 12:49:45 AM)
[2017.07.08-08.49.45:313][ 63]LogPlayLevel: Creating play world package: /Game/FirstPersonBP/Maps/UEDPIE_0_FirstPersonExampleMap
[2017.07.08-08.49.45:436][ 63]LogPlayLevel: PIE: StaticDuplicateObject took: (0.122331s)
[2017.07.08-08.49.45:439][ 63]LogAIModule: Creating AISystem for world FirstPersonExampleMap
[2017.07.08-08.49.45:441][ 63]LogPlayLevel: PIE: World Init took: (0.004883s)
[2017.07.08-08.49.45:450][ 63]LogPlayLevel: PIE: Created PIE world by copying editor world from /Game/FirstPersonBP/Maps/FirstPersonExampleMap.FirstPersonExampleMap to /Game/FirstPersonBP/Maps/UEDPIE_0_FirstPersonExampleMap.FirstPersonExampleMap (0.145296s)
[2017.07.08-08.49.45:535][ 63]LogInit: XAudio2 using '扬声器 (Realtek High Definition Audio)' : 2 channels at 48 kHz using 32 bits per sample (channel mask 0x3)
[2017.07.08-08.49.45:566][ 63]LogInit: FAudioDevice initialized.
[2017.07.08-08.49.45:684][ 63]LogLoad: Game class is 'FirstPersonGameMode_C'
[2017.07.08-08.49.45:695][ 63]LogWorld: Bringing World /Game/FirstPersonBP/Maps/UEDPIE_0_FirstPersonExampleMap.FirstPersonExampleMap up for play (max tick rate 60) at 2017.07.08-16.49.45
[2017.07.08-08.49.45:781][ 63]LogWorld: Bringing up level for play took: 0.095591
[2017.07.08-08.49.46:155][ 63]LogContentBrowser: Native class hierarchy updated for 'MovieSceneCapture' in 0.0022 seconds. Added 11 classes and 0 folders.
[2017.07.08-08.49.46:474][ 63]PIE: Info Play in editor start time for /Game/FirstPersonBP/Maps/UEDPIE_0_FirstPersonExampleMap 2.33
[2017.07.08-08.49.46:491][ 63]LogBlueprintUserMessages: Late PlayInEditor Detection: Level '/Game/FirstPersonBP/Maps/FirstPersonExampleMap.FirstPersonExampleMap:PersistentLevel' has LevelScriptBlueprint '/Game/FirstPersonBP/Maps/FirstPersonExampleMap.FirstPersonExampleMap:PersistentLevel.FirstPersonExampleMap' with GeneratedClass '/Game/FirstPersonBP/Maps/FirstPersonExampleMap.FirstPersonExampleMap_C' with ClassGeneratedBy '/Game/FirstPersonBP/Maps/FirstPersonExampleMap.FirstPersonExampleMap:PersistentLevel.FirstPersonExampleMap'
[2017.07.08-08.49.46:798][ 63]LogRenderer: Reallocating scene render targets to support 1124x656 NumSamples 1 (Frame:1).
[2017.07.08-08.49.48:818][121]PIE:Warning: Warning The widget 'PickupText_C' was already added to the screen.
[2017.07.08-08.49.48:826][122]PIE:Warning: Warning The widget 'PickupText_C' was already added to the screen.
[2017.07.08-08.49.50:649][172]PIE:Warning: Warning The widget 'PickupText_C' was already added to the screen.
[2017.07.08-08.49.50:688][173]PIE:Warning: Warning The widget 'PickupText_C' was already added to the screen.
[2017.07.08-08.49.54:730][289]PIE:Warning: Warning The widget 'PickupText_C' was already added to the screen.
[2017.07.08-08.49.54:770][290]PIE:Warning: Warning The widget 'PickupText_C' was already added to the screen.
[2017.07.08-08.49.58:855][414]PIE:Warning: Warning The widget 'PickupText_C' was already added to the screen.
[2017.07.08-08.49.58:855][414]PIE:Warning: Warning The widget 'PickupText_C' was already added to the screen.
[2017.07.08-08.49.59:916][448]LogBlueprintUserMessages: Early EndPlayMap Detection: Level '/Game/FirstPersonBP/Maps/FirstPersonExampleMap.FirstPersonExampleMap:PersistentLevel' has LevelScriptBlueprint '/Game/FirstPersonBP/Maps/FirstPersonExampleMap.FirstPersonExampleMap:PersistentLevel.FirstPersonExampleMap' with GeneratedClass '/Game/FirstPersonBP/Maps/FirstPersonExampleMap.FirstPersonExampleMap_C' with ClassGeneratedBy '/Game/FirstPersonBP/Maps/FirstPersonExampleMap.FirstPersonExampleMap:PersistentLevel.FirstPersonExampleMap'
[2017.07.08-08.50.00:103][448]LogBlueprintUserMessages: Late EndPlayMap Detection: Level '/Game/FirstPersonBP/Maps/FirstPersonExampleMap.FirstPersonExampleMap:PersistentLevel' has LevelScriptBlueprint '/Game/FirstPersonBP/Maps/FirstPersonExampleMap.FirstPersonExampleMap:PersistentLevel.FirstPersonExampleMap' with GeneratedClass '/Game/FirstPersonBP/Maps/FirstPersonExampleMap.FirstPersonExampleMap_C' with ClassGeneratedBy '/Game/FirstPersonBP/Maps/FirstPersonExampleMap.FirstPersonExampleMap:PersistentLevel.FirstPersonExampleMap'
[2017.07.08-09.03.07:454][602]LogTemp: Repeting last play command: Selected Viewport
[2017.07.08-09.03.07:610][602]LogBlueprintUserMessages: Early PlayInEditor Detection: Level '/Game/FirstPersonBP/Maps/FirstPersonExampleMap.FirstPersonExampleMap:PersistentLevel' has LevelScriptBlueprint '/Game/FirstPersonBP/Maps/FirstPersonExampleMap.FirstPersonExampleMap:PersistentLevel.FirstPersonExampleMap' with GeneratedClass '/Game/FirstPersonBP/Maps/FirstPersonExampleMap.FirstPersonExampleMap_C' with ClassGeneratedBy '/Game/FirstPersonBP/Maps/FirstPersonExampleMap.FirstPersonExampleMap:PersistentLevel.FirstPersonExampleMap'
[2017.07.08-09.03.07:610][602]BlueprintLog: New page: Pre-Play auto-recompile
[2017.07.08-09.03.07:610][602]LogPlayLevel: [PlayLevel] Compiling GameHUD before play...
[2017.07.08-09.03.12:196][602]Cmd: OBJ SAVEPACKAGE PACKAGE="/Game/UMG/GameHUD" FILE="D:/admin/Documents/Unreal Projects/inventoryWithUMG/Content/UMG/GameHUD.uasset" SILENT=true
[2017.07.08-09.03.12:518][602]LogSavePackage: Save=307.44ms
[2017.07.08-09.03.12:518][602]LogSavePackage: Moving 'D:/admin/Documents/Unreal Projects/inventoryWithUMG/Saved/GameHUDCDD2FA6548391CC3B0057E990F6D8F30.tmp' to 'D:/admin/Documents/Unreal Projects/inventoryWithUMG/Content/UMG/GameHUD.uasset'
[2017.07.08-09.03.12:534][602]LogSavePackage:Display: Finished SavePackage D:/admin/Documents/Unreal Projects/inventoryWithUMG/Content/UMG/GameHUD.uasset
[2017.07.08-09.03.12:732][602]LogPlayLevel: PlayLevel: Blueprint regeneration took 5122 ms (1 blueprints)
[2017.07.08-09.03.12:733][602]PIE: New page: PIE session: FirstPersonExampleMap (Jul 9, 2017, 1:03:12 AM)
[2017.07.08-09.03.12:733][602]LogPlayLevel: Creating play world package: /Game/FirstPersonBP/Maps/UEDPIE_0_FirstPersonExampleMap
[2017.07.08-09.03.12:781][602]LogPlayLevel: PIE: StaticDuplicateObject took: (0.047835s)
[2017.07.08-09.03.12:788][602]LogAIModule: Creating AISystem for world FirstPersonExampleMap
[2017.07.08-09.03.12:789][602]LogPlayLevel: PIE: World Init took: (0.007843s)
[2017.07.08-09.03.12:789][602]LogPlayLevel: PIE: Created PIE world by copying editor world from /Game/FirstPersonBP/Maps/FirstPersonExampleMap.FirstPersonExampleMap to /Game/FirstPersonBP/Maps/UEDPIE_0_FirstPersonExampleMap.FirstPersonExampleMap (0.056305s)
[2017.07.08-09.03.12:841][602]LogInit: XAudio2 using '扬声器 (Realtek High Definition Audio)' : 2 channels at 48 kHz using 32 bits per sample (channel mask 0x3)
[2017.07.08-09.03.12:882][602]LogInit: FAudioDevice initialized.
[2017.07.08-09.03.12:936][602]LogLoad: Game class is 'FirstPersonGameMode_C'
[2017.07.08-09.03.12:946][602]LogWorld: Bringing World /Game/FirstPersonBP/Maps/UEDPIE_0_FirstPersonExampleMap.FirstPersonExampleMap up for play (max tick rate 60) at 2017.07.08-17.03.12
[2017.07.08-09.03.12:947][602]LogWorld: Bringing up level for play took: 0.009812
[2017.07.08-09.03.12:956][602]PIE: Info Play in editor start time for /Game/FirstPersonBP/Maps/UEDPIE_0_FirstPersonExampleMap 4.812
[2017.07.08-09.03.12:984][602]LogBlueprintUserMessages: Late PlayInEditor Detection: Level '/Game/FirstPersonBP/Maps/FirstPersonExampleMap.FirstPersonExampleMap:PersistentLevel' has LevelScriptBlueprint '/Game/FirstPersonBP/Maps/FirstPersonExampleMap.FirstPersonExampleMap:PersistentLevel.FirstPersonExampleMap' with GeneratedClass '/Game/FirstPersonBP/Maps/FirstPersonExampleMap.FirstPersonExampleMap_C' with ClassGeneratedBy '/Game/FirstPersonBP/Maps/FirstPersonExampleMap.FirstPersonExampleMap:PersistentLevel.FirstPersonExampleMap'
[2017.07.08-09.03.16:217][685]PIE:Warning: Warning The widget 'PickupText_C' was already added to the screen.
[2017.07.08-09.03.16:251][686]PIE:Warning: Warning The widget 'PickupText_C' was already added to the screen.
[2017.07.08-09.03.18:733][760]PIE:Warning: Warning The widget 'PickupText_C' was already added to the screen.
[2017.07.08-09.03.18:767][761]PIE:Warning: Warning The widget 'PickupText_C' was already added to the screen.
[2017.07.08-09.03.20:995][828]PIE:Warning: Warning The widget 'PickupText_C' was already added to the screen.
[2017.07.08-09.03.21:028][829]PIE:Warning: Warning The widget 'PickupText_C' was already added to the screen.
[2017.07.08-09.03.24:106][925]LogBlueprintUserMessages: Early EndPlayMap Detection: Level '/Game/FirstPersonBP/Maps/FirstPersonExampleMap.FirstPersonExampleMap:PersistentLevel' has LevelScriptBlueprint '/Game/FirstPersonBP/Maps/FirstPersonExampleMap.FirstPersonExampleMap:PersistentLevel.FirstPersonExampleMap' with GeneratedClass '/Game/FirstPersonBP/Maps/FirstPersonExampleMap.FirstPersonExampleMap_C' with ClassGeneratedBy '/Game/FirstPersonBP/Maps/FirstPersonExampleMap.FirstPersonExampleMap:PersistentLevel.FirstPersonExampleMap'
[2017.07.08-09.03.24:183][925]LogBlueprintUserMessages: Late EndPlayMap Detection: Level '/Game/FirstPersonBP/Maps/FirstPersonExampleMap.FirstPersonExampleMap:PersistentLevel' has LevelScriptBlueprint '/Game/FirstPersonBP/Maps/FirstPersonExampleMap.FirstPersonExampleMap:PersistentLevel.FirstPersonExampleMap' with GeneratedClass '/Game/FirstPersonBP/Maps/FirstPersonExampleMap.FirstPersonExampleMap_C' with ClassGeneratedBy '/Game/FirstPersonBP/Maps/FirstPersonExampleMap.FirstPersonExampleMap:PersistentLevel.FirstPersonExampleMap'
[2017.07.08-09.03.25:914][ 22]LogEditorTransaction: Undo Create Pin Link
[2017.07.08-09.03.27:260][ 71]LogEditorTransaction: Undo Break Pin Links
[2017.07.08-09.03.57:739][875]LogFileHelpers: Editor autosave (incl. sublevels) for '/Game/FirstPersonBP/Maps/FirstPersonExampleMap' took 0.048
[2017.07.08-09.03.57:741][875]OBJ SavePackage: Generating thumbnails for [0] asset(s) in package [/Game/UMG/GameHUD] ([1] browsable assets)...
[2017.07.08-09.03.57:741][875]OBJ SavePackage: Finished generating thumbnails for package [/Game/UMG/GameHUD]
[2017.07.08-09.03.57:741][875]Cmd: OBJ SAVEPACKAGE PACKAGE="/Game/UMG/GameHUD" FILE="D:/admin/Documents/Unreal Projects/inventoryWithUMG/Saved/Autosaves/Game/UMG/GameHUD_Auto3.uasset" SILENT=false AUTOSAVING=true
[2017.07.08-09.03.57:972][875]LogSavePackage: Save=226.31ms
[2017.07.08-09.03.57:972][875]LogSavePackage: Moving 'D:/admin/Documents/Unreal Projects/inventoryWithUMG/Saved/GameHUD_Auto304C35A9840CEF73FAD37FEB32177D6AA.tmp' to 'D:/admin/Documents/Unreal Projects/inventoryWithUMG/Saved/Autosaves/Game/UMG/GameHUD_Auto3.uasset'
[2017.07.08-09.03.57:974][875]LogSavePackage:Display: Finished SavePackage D:/admin/Documents/Unreal Projects/inventoryWithUMG/Saved/Autosaves/Game/UMG/GameHUD_Auto3.uasset
[2017.07.08-09.03.57:974][875]LogFileHelpers: Auto-saving content packages took 0.235
[2017.07.08-09.04.48:322][883]LogTemp: Repeting last play command: Selected Viewport
[2017.07.08-09.04.48:348][883]LogBlueprintUserMessages: Early PlayInEditor Detection: Level '/Game/FirstPersonBP/Maps/FirstPersonExampleMap.FirstPersonExampleMap:PersistentLevel' has LevelScriptBlueprint '/Game/FirstPersonBP/Maps/FirstPersonExampleMap.FirstPersonExampleMap:PersistentLevel.FirstPersonExampleMap' with GeneratedClass '/Game/FirstPersonBP/Maps/FirstPersonExampleMap.FirstPersonExampleMap_C' with ClassGeneratedBy '/Game/FirstPersonBP/Maps/FirstPersonExampleMap.FirstPersonExampleMap:PersistentLevel.FirstPersonExampleMap'
[2017.07.08-09.04.48:348][883]BlueprintLog: New page: Pre-Play auto-recompile
[2017.07.08-09.04.48:348][883]LogPlayLevel: [PlayLevel] Compiling GameHUD before play...
[2017.07.08-09.04.48:732][883]Cmd: OBJ SAVEPACKAGE PACKAGE="/Game/UMG/GameHUD" FILE="D:/admin/Documents/Unreal Projects/inventoryWithUMG/Content/UMG/GameHUD.uasset" SILENT=true
[2017.07.08-09.04.48:928][883]LogSavePackage: Save=191.01ms
[2017.07.08-09.04.48:928][883]LogSavePackage: Moving 'D:/admin/Documents/Unreal Projects/inventoryWithUMG/Saved/GameHUD21A150C84198E3EFC24760959346BD6C.tmp' to 'D:/admin/Documents/Unreal Projects/inventoryWithUMG/Content/UMG/GameHUD.uasset'
[2017.07.08-09.04.48:934][883]LogSavePackage:Display: Finished SavePackage D:/admin/Documents/Unreal Projects/inventoryWithUMG/Content/UMG/GameHUD.uasset
[2017.07.08-09.04.48:999][883]LogPlayLevel: PlayLevel: Blueprint regeneration took 651 ms (1 blueprints)
[2017.07.08-09.04.48:999][883]PIE: New page: PIE session: FirstPersonExampleMap (Jul 9, 2017, 1:04:48 AM)
[2017.07.08-09.04.48:999][883]LogPlayLevel: Creating play world package: /Game/FirstPersonBP/Maps/UEDPIE_0_FirstPersonExampleMap
[2017.07.08-09.04.49:029][883]LogPlayLevel: PIE: StaticDuplicateObject took: (0.029457s)
[2017.07.08-09.04.49:032][883]LogAIModule: Creating AISystem for world FirstPersonExampleMap
[2017.07.08-09.04.49:032][883]LogPlayLevel: PIE: World Init took: (0.003160s)
[2017.07.08-09.04.49:032][883]LogPlayLevel: PIE: Created PIE world by copying editor world from /Game/FirstPersonBP/Maps/FirstPersonExampleMap.FirstPersonExampleMap to /Game/FirstPersonBP/Maps/UEDPIE_0_FirstPersonExampleMap.FirstPersonExampleMap (0.033013s)
[2017.07.08-09.04.49:076][883]LogInit: XAudio2 using '扬声器 (Realtek High Definition Audio)' : 2 channels at 48 kHz using 32 bits per sample (channel mask 0x3)
[2017.07.08-09.04.49:092][883]LogInit: FAudioDevice initialized.
[2017.07.08-09.04.49:146][883]LogLoad: Game class is 'FirstPersonGameMode_C'
[2017.07.08-09.04.49:151][883]LogWorld: Bringing World /Game/FirstPersonBP/Maps/UEDPIE_0_FirstPersonExampleMap.FirstPersonExampleMap up for play (max tick rate 60) at 2017.07.08-17.04.49
[2017.07.08-09.04.49:152][883]LogWorld: Bringing up level for play took: 0.004994
[2017.07.08-09.04.49:162][883]PIE: Info Play in editor start time for /Game/FirstPersonBP/Maps/UEDPIE_0_FirstPersonExampleMap 1.018
[2017.07.08-09.04.49:163][883]LogBlueprintUserMessages: Late PlayInEditor Detection: Level '/Game/FirstPersonBP/Maps/FirstPersonExampleMap.FirstPersonExampleMap:PersistentLevel' has LevelScriptBlueprint '/Game/FirstPersonBP/Maps/FirstPersonExampleMap.FirstPersonExampleMap:PersistentLevel.FirstPersonExampleMap' with GeneratedClass '/Game/FirstPersonBP/Maps/FirstPersonExampleMap.FirstPersonExampleMap_C' with ClassGeneratedBy '/Game/FirstPersonBP/Maps/FirstPersonExampleMap.FirstPersonExampleMap:PersistentLevel.FirstPersonExampleMap'
[2017.07.08-09.04.51:716][954]PIE:Warning: Warning The widget 'PickupText_C' was already added to the screen.
[2017.07.08-09.04.51:750][955]PIE:Warning: Warning The widget 'PickupText_C' was already added to the screen.
[2017.07.08-09.04.54:171][ 27]PIE:Warning: Warning The widget 'PickupText_C' was already added to the screen.
[2017.07.08-09.04.54:204][ 28]PIE:Warning: Warning The widget 'PickupText_C' was already added to the screen.
[2017.07.08-09.04.57:553][128]PIE:Warning: Warning The widget 'PickupText_C' was already added to the screen.
[2017.07.08-09.04.57:586][129]PIE:Warning: Warning The widget 'PickupText_C' was already added to the screen.
[2017.07.08-09.05.01:195][241]PIE:Warning: Warning The widget 'PickupText_C' was already added to the screen.
[2017.07.08-09.05.01:195][241]PIE:Warning: Warning The widget 'PickupText_C' was already added to the screen.
[2017.07.08-09.05.03:064][299]PIE:Warning: Warning The widget 'PickupText_C' was already added to the screen.
[2017.07.08-09.05.03:064][299]PIE:Warning: Warning The widget 'PickupText_C' was already added to the screen.
[2017.07.08-09.05.20:711][718]LogBlueprintUserMessages: Early EndPlayMap Detection: Level '/Game/FirstPersonBP/Maps/FirstPersonExampleMap.FirstPersonExampleMap:PersistentLevel' has LevelScriptBlueprint '/Game/FirstPersonBP/Maps/FirstPersonExampleMap.FirstPersonExampleMap:PersistentLevel.FirstPersonExampleMap' with GeneratedClass '/Game/FirstPersonBP/Maps/FirstPersonExampleMap.FirstPersonExampleMap_C' with ClassGeneratedBy '/Game/FirstPersonBP/Maps/FirstPersonExampleMap.FirstPersonExampleMap:PersistentLevel.FirstPersonExampleMap'
[2017.07.08-09.05.20:820][718]LogBlueprintUserMessages: Late EndPlayMap Detection: Level '/Game/FirstPersonBP/Maps/FirstPersonExampleMap.FirstPersonExampleMap:PersistentLevel' has LevelScriptBlueprint '/Game/FirstPersonBP/Maps/FirstPersonExampleMap.FirstPersonExampleMap:PersistentLevel.FirstPersonExampleMap' with GeneratedClass '/Game/FirstPersonBP/Maps/FirstPersonExampleMap.FirstPersonExampleMap_C' with ClassGeneratedBy '/Game/FirstPersonBP/Maps/FirstPersonExampleMap.FirstPersonExampleMap:PersistentLevel.FirstPersonExampleMap'
[2017.07.08-09.05.25:900][ 16]LogEditorTransaction: Undo Create Pin Link
[2017.07.08-09.07.09:301][134]LogTemp: Repeting last play command: Selected Viewport
[2017.07.08-09.07.09:327][134]LogBlueprintUserMessages: Early PlayInEditor Detection: Level '/Game/FirstPersonBP/Maps/FirstPersonExampleMap.FirstPersonExampleMap:PersistentLevel' has LevelScriptBlueprint '/Game/FirstPersonBP/Maps/FirstPersonExampleMap.FirstPersonExampleMap:PersistentLevel.FirstPersonExampleMap' with GeneratedClass '/Game/FirstPersonBP/Maps/FirstPersonExampleMap.FirstPersonExampleMap_C' with ClassGeneratedBy '/Game/FirstPersonBP/Maps/FirstPersonExampleMap.FirstPersonExampleMap:PersistentLevel.FirstPersonExampleMap'
[2017.07.08-09.07.09:327][134]BlueprintLog: New page: Pre-Play auto-recompile
[2017.07.08-09.07.09:327][134]LogPlayLevel: [PlayLevel] Compiling GameHUD before play...
[2017.07.08-09.07.09:597][134]Cmd: OBJ SAVEPACKAGE PACKAGE="/Game/UMG/GameHUD" FILE="D:/admin/Documents/Unreal Projects/inventoryWithUMG/Content/UMG/GameHUD.uasset" SILENT=true
[2017.07.08-09.07.09:823][134]LogSavePackage: Save=217.63ms
[2017.07.08-09.07.09:823][134]LogSavePackage: Moving 'D:/admin/Documents/Unreal Projects/inventoryWithUMG/Saved/GameHUD18E9CD964E917ACAC9E831B5D2A0BD44.tmp' to 'D:/admin/Documents/Unreal Projects/inventoryWithUMG/Content/UMG/GameHUD.uasset'
[2017.07.08-09.07.09:834][134]LogSavePackage:Display: Finished SavePackage D:/admin/Documents/Unreal Projects/inventoryWithUMG/Content/UMG/GameHUD.uasset
[2017.07.08-09.07.09:901][134]LogPlayLevel: PlayLevel: Blueprint regeneration took 573 ms (1 blueprints)
[2017.07.08-09.07.09:901][134]PIE: New page: PIE session: FirstPersonExampleMap (Jul 9, 2017, 1:07:09 AM)
[2017.07.08-09.07.09:901][134]LogPlayLevel: Creating play world package: /Game/FirstPersonBP/Maps/UEDPIE_0_FirstPersonExampleMap
[2017.07.08-09.07.09:929][134]LogPlayLevel: PIE: StaticDuplicateObject took: (0.028550s)
[2017.07.08-09.07.09:930][134]LogAIModule: Creating AISystem for world FirstPersonExampleMap
[2017.07.08-09.07.09:931][134]LogPlayLevel: PIE: World Init took: (0.001317s)
[2017.07.08-09.07.09:931][134]LogPlayLevel: PIE: Created PIE world by copying editor world from /Game/FirstPersonBP/Maps/FirstPersonExampleMap.FirstPersonExampleMap to /Game/FirstPersonBP/Maps/UEDPIE_0_FirstPersonExampleMap.FirstPersonExampleMap (0.030491s)
[2017.07.08-09.07.09:972][134]LogInit: XAudio2 using '扬声器 (Realtek High Definition Audio)' : 2 channels at 48 kHz using 32 bits per sample (channel mask 0x3)
[2017.07.08-09.07.09:989][134]LogInit: FAudioDevice initialized.
[2017.07.08-09.07.10:047][134]LogLoad: Game class is 'FirstPersonGameMode_C'
[2017.07.08-09.07.10:051][134]LogWorld: Bringing World /Game/FirstPersonBP/Maps/UEDPIE_0_FirstPersonExampleMap.FirstPersonExampleMap up for play (max tick rate 60) at 2017.07.08-17.07.10
[2017.07.08-09.07.10:052][134]LogWorld: Bringing up level for play took: 0.004426
[2017.07.08-09.07.10:062][134]PIE: Info Play in editor start time for /Game/FirstPersonBP/Maps/UEDPIE_0_FirstPersonExampleMap -0.082
[2017.07.08-09.07.10:062][134]LogBlueprintUserMessages: Late PlayInEditor Detection: Level '/Game/FirstPersonBP/Maps/FirstPersonExampleMap.FirstPersonExampleMap:PersistentLevel' has LevelScriptBlueprint '/Game/FirstPersonBP/Maps/FirstPersonExampleMap.FirstPersonExampleMap:PersistentLevel.FirstPersonExampleMap' with GeneratedClass '/Game/FirstPersonBP/Maps/FirstPersonExampleMap.FirstPersonExampleMap_C' with ClassGeneratedBy '/Game/FirstPersonBP/Maps/FirstPersonExampleMap.FirstPersonExampleMap:PersistentLevel.FirstPersonExampleMap'
[2017.07.08-09.07.12:210][196]PIE:Warning: Warning The widget 'PickupText_C' was already added to the screen.
[2017.07.08-09.07.12:244][197]PIE:Warning: Warning The widget 'PickupText_C' was already added to the screen.
[2017.07.08-09.07.14:606][267]PIE:Warning: Warning The widget 'PickupText_C' was already added to the screen.
[2017.07.08-09.07.14:640][268]PIE:Warning: Warning The widget 'PickupText_C' was already added to the screen.
[2017.07.08-09.07.24:416][559]LogBlueprintUserMessages: Early EndPlayMap Detection: Level '/Game/FirstPersonBP/Maps/FirstPersonExampleMap.FirstPersonExampleMap:PersistentLevel' has LevelScriptBlueprint '/Game/FirstPersonBP/Maps/FirstPersonExampleMap.FirstPersonExampleMap:PersistentLevel.FirstPersonExampleMap' with GeneratedClass '/Game/FirstPersonBP/Maps/FirstPersonExampleMap.FirstPersonExampleMap_C' with ClassGeneratedBy '/Game/FirstPersonBP/Maps/FirstPersonExampleMap.FirstPersonExampleMap:PersistentLevel.FirstPersonExampleMap'
[2017.07.08-09.07.24:497][559]LogBlueprintUserMessages: Late EndPlayMap Detection: Level '/Game/FirstPersonBP/Maps/FirstPersonExampleMap.FirstPersonExampleMap:PersistentLevel' has LevelScriptBlueprint '/Game/FirstPersonBP/Maps/FirstPersonExampleMap.FirstPersonExampleMap:PersistentLevel.FirstPersonExampleMap' with GeneratedClass '/Game/FirstPersonBP/Maps/FirstPersonExampleMap.FirstPersonExampleMap_C' with ClassGeneratedBy '/Game/FirstPersonBP/Maps/FirstPersonExampleMap.FirstPersonExampleMap:PersistentLevel.FirstPersonExampleMap'
[2017.07.08-09.07.33:445][ 84]LogTemp: Repeting last play command: Selected Viewport
[2017.07.08-09.07.33:477][ 84]LogBlueprintUserMessages: Early PlayInEditor Detection: Level '/Game/FirstPersonBP/Maps/FirstPersonExampleMap.FirstPersonExampleMap:PersistentLevel' has LevelScriptBlueprint '/Game/FirstPersonBP/Maps/FirstPersonExampleMap.FirstPersonExampleMap:PersistentLevel.FirstPersonExampleMap' with GeneratedClass '/Game/FirstPersonBP/Maps/FirstPersonExampleMap.FirstPersonExampleMap_C' with ClassGeneratedBy '/Game/FirstPersonBP/Maps/FirstPersonExampleMap.FirstPersonExampleMap:PersistentLevel.FirstPersonExampleMap'
[2017.07.08-09.07.33:477][ 84]BlueprintLog: New page: Pre-Play auto-recompile
[2017.07.08-09.07.33:477][ 84]LogPlayLevel: [PlayLevel] Compiling GameHUD before play...
[2017.07.08-09.07.33:724][ 84]Cmd: OBJ SAVEPACKAGE PACKAGE="/Game/UMG/GameHUD" FILE="D:/admin/Documents/Unreal Projects/inventoryWithUMG/Content/UMG/GameHUD.uasset" SILENT=true
[2017.07.08-09.07.33:914][ 84]LogSavePackage: Save=186.00ms
[2017.07.08-09.07.33:914][ 84]LogSavePackage: Moving 'D:/admin/Documents/Unreal Projects/inventoryWithUMG/Saved/GameHUD235E04F74D27F6A99436E49937DE3A75.tmp' to 'D:/admin/Documents/Unreal Projects/inventoryWithUMG/Content/UMG/GameHUD.uasset'
[2017.07.08-09.07.33:919][ 84]LogSavePackage:Display: Finished SavePackage D:/admin/Documents/Unreal Projects/inventoryWithUMG/Content/UMG/GameHUD.uasset
[2017.07.08-09.07.33:983][ 84]LogPlayLevel: PlayLevel: Blueprint regeneration took 505 ms (1 blueprints)
[2017.07.08-09.07.33:983][ 84]PIE: New page: PIE session: FirstPersonExampleMap (Jul 9, 2017, 1:07:33 AM)
[2017.07.08-09.07.33:983][ 84]LogPlayLevel: Creating play world package: /Game/FirstPersonBP/Maps/UEDPIE_0_FirstPersonExampleMap
[2017.07.08-09.07.34:013][ 84]LogPlayLevel: PIE: StaticDuplicateObject took: (0.029846s)
[2017.07.08-09.07.34:014][ 84]LogAIModule: Creating AISystem for world FirstPersonExampleMap
[2017.07.08-09.07.34:014][ 84]LogPlayLevel: PIE: World Init took: (0.001096s)
[2017.07.08-09.07.34:014][ 84]LogPlayLevel: PIE: Created PIE world by copying editor world from /Game/FirstPersonBP/Maps/FirstPersonExampleMap.FirstPersonExampleMap to /Game/FirstPersonBP/Maps/UEDPIE_0_FirstPersonExampleMap.FirstPersonExampleMap (0.031246s)
[2017.07.08-09.07.34:055][ 84]LogInit: XAudio2 using '扬声器 (Realtek High Definition Audio)' : 2 channels at 48 kHz using 32 bits per sample (channel mask 0x3)
[2017.07.08-09.07.34:071][ 84]LogInit: FAudioDevice initialized.
[2017.07.08-09.07.34:126][ 84]LogLoad: Game class is 'FirstPersonGameMode_C'
[2017.07.08-09.07.34:130][ 84]LogWorld: Bringing World /Game/FirstPersonBP/Maps/UEDPIE_0_FirstPersonExampleMap.FirstPersonExampleMap up for play (max tick rate 60) at 2017.07.08-17.07.34
[2017.07.08-09.07.34:131][ 84]LogWorld: Bringing up level for play took: 0.004234
[2017.07.08-09.07.34:142][ 84]PIE: Info Play in editor start time for /Game/FirstPersonBP/Maps/UEDPIE_0_FirstPersonExampleMap -0.001
[2017.07.08-09.07.34:143][ 84]LogBlueprintUserMessages: Late PlayInEditor Detection: Level '/Game/FirstPersonBP/Maps/FirstPersonExampleMap.FirstPersonExampleMap:PersistentLevel' has LevelScriptBlueprint '/Game/FirstPersonBP/Maps/FirstPersonExampleMap.FirstPersonExampleMap:PersistentLevel.FirstPersonExampleMap' with GeneratedClass '/Game/FirstPersonBP/Maps/FirstPersonExampleMap.FirstPersonExampleMap_C' with ClassGeneratedBy '/Game/FirstPersonBP/Maps/FirstPersonExampleMap.FirstPersonExampleMap:PersistentLevel.FirstPersonExampleMap'
[2017.07.08-09.07.34:642][ 97]PIE:Warning: Warning The widget 'PickupText_C' was already added to the screen.
[2017.07.08-09.07.34:809][102]PIE:Warning: Warning The widget 'PickupText_C' was already added to the screen.
[2017.07.08-09.07.35:650][127]PIE:Warning: Warning The widget 'PickupText_C' was already added to the screen.
[2017.07.08-09.07.35:718][129]PIE:Warning: Warning The widget 'PickupText_C' was already added to the screen.
[2017.07.08-09.07.37:422][180]PIE:Warning: Warning The widget 'PickupText_C' was already added to the screen.
[2017.07.08-09.07.37:456][181]PIE:Warning: Warning The widget 'PickupText_C' was already added to the screen.
[2017.07.08-09.07.39:660][247]PIE:Warning: Warning The widget 'PickupText_C' was already added to the screen.
[2017.07.08-09.07.39:693][248]PIE:Warning: Warning The widget 'PickupText_C' was already added to the screen.
[2017.07.08-09.07.44:778][406]LogBlueprintUserMessages: Early EndPlayMap Detection: Level '/Game/FirstPersonBP/Maps/FirstPersonExampleMap.FirstPersonExampleMap:PersistentLevel' has LevelScriptBlueprint '/Game/FirstPersonBP/Maps/FirstPersonExampleMap.FirstPersonExampleMap:PersistentLevel.FirstPersonExampleMap' with GeneratedClass '/Game/FirstPersonBP/Maps/FirstPersonExampleMap.FirstPersonExampleMap_C' with ClassGeneratedBy '/Game/FirstPersonBP/Maps/FirstPersonExampleMap.FirstPersonExampleMap:PersistentLevel.FirstPersonExampleMap'
[2017.07.08-09.07.44:859][406]LogBlueprintUserMessages: Late EndPlayMap Detection: Level '/Game/FirstPersonBP/Maps/FirstPersonExampleMap.FirstPersonExampleMap:PersistentLevel' has LevelScriptBlueprint '/Game/FirstPersonBP/Maps/FirstPersonExampleMap.FirstPersonExampleMap:PersistentLevel.FirstPersonExampleMap' with GeneratedClass '/Game/FirstPersonBP/Maps/FirstPersonExampleMap.FirstPersonExampleMap_C' with ClassGeneratedBy '/Game/FirstPersonBP/Maps/FirstPersonExampleMap.FirstPersonExampleMap:PersistentLevel.FirstPersonExampleMap'
[2017.07.08-09.07.54:237][957]LogTemp: Repeting last play command: Selected Viewport
[2017.07.08-09.07.54:261][957]LogBlueprintUserMessages: Early PlayInEditor Detection: Level '/Game/FirstPersonBP/Maps/FirstPersonExampleMap.FirstPersonExampleMap:PersistentLevel' has LevelScriptBlueprint '/Game/FirstPersonBP/Maps/FirstPersonExampleMap.FirstPersonExampleMap:PersistentLevel.FirstPersonExampleMap' with GeneratedClass '/Game/FirstPersonBP/Maps/FirstPersonExampleMap.FirstPersonExampleMap_C' with ClassGeneratedBy '/Game/FirstPersonBP/Maps/FirstPersonExampleMap.FirstPersonExampleMap:PersistentLevel.FirstPersonExampleMap'
[2017.07.08-09.07.54:261][957]BlueprintLog: New page: Pre-Play auto-recompile
[2017.07.08-09.07.54:261][957]LogPlayLevel: [PlayLevel] Compiling GameHUD before play...
[2017.07.08-09.07.54:495][957]Cmd: OBJ SAVEPACKAGE PACKAGE="/Game/UMG/GameHUD" FILE="D:/admin/Documents/Unreal Projects/inventoryWithUMG/Content/UMG/GameHUD.uasset" SILENT=true
[2017.07.08-09.07.54:711][957]LogSavePackage: Save=211.38ms
[2017.07.08-09.07.54:711][957]LogSavePackage: Moving 'D:/admin/Documents/Unreal Projects/inventoryWithUMG/Saved/GameHUDCD90EB9148346AF95C9EA8B90BCE16AE.tmp' to 'D:/admin/Documents/Unreal Projects/inventoryWithUMG/Content/UMG/GameHUD.uasset'
[2017.07.08-09.07.54:716][957]LogSavePackage:Display: Finished SavePackage D:/admin/Documents/Unreal Projects/inventoryWithUMG/Content/UMG/GameHUD.uasset
[2017.07.08-09.07.54:780][957]LogPlayLevel: PlayLevel: Blueprint regeneration took 518 ms (1 blueprints)
[2017.07.08-09.07.54:781][957]PIE: New page: PIE session: FirstPersonExampleMap (Jul 9, 2017, 1:07:54 AM)
[2017.07.08-09.07.54:781][957]LogPlayLevel: Creating play world package: /Game/FirstPersonBP/Maps/UEDPIE_0_FirstPersonExampleMap
[2017.07.08-09.07.54:809][957]LogPlayLevel: PIE: StaticDuplicateObject took: (0.028058s)
[2017.07.08-09.07.54:810][957]LogAIModule: Creating AISystem for world FirstPersonExampleMap
[2017.07.08-09.07.54:810][957]LogPlayLevel: PIE: World Init took: (0.000911s)
[2017.07.08-09.07.54:810][957]LogPlayLevel: PIE: Created PIE world by copying editor world from /Game/FirstPersonBP/Maps/FirstPersonExampleMap.FirstPersonExampleMap to /Game/FirstPersonBP/Maps/UEDPIE_0_FirstPersonExampleMap.FirstPersonExampleMap (0.029315s)
[2017.07.08-09.07.54:848][957]LogInit: XAudio2 using '扬声器 (Realtek High Definition Audio)' : 2 channels at 48 kHz using 32 bits per sample (channel mask 0x3)
[2017.07.08-09.07.54:864][957]LogInit: FAudioDevice initialized.
[2017.07.08-09.07.54:918][957]LogLoad: Game class is 'FirstPersonGameMode_C'
[2017.07.08-09.07.54:924][957]LogWorld: Bringing World /Game/FirstPersonBP/Maps/UEDPIE_0_FirstPersonExampleMap.FirstPersonExampleMap up for play (max tick rate 60) at 2017.07.08-17.07.54
[2017.07.08-09.07.54:924][957]LogWorld: Bringing up level for play took: 0.004545
[2017.07.08-09.07.54:973][957]PIE: Info Play in editor start time for /Game/FirstPersonBP/Maps/UEDPIE_0_FirstPersonExampleMap 0.83
[2017.07.08-09.07.54:974][957]LogBlueprintUserMessages: Late PlayInEditor Detection: Level '/Game/FirstPersonBP/Maps/FirstPersonExampleMap.FirstPersonExampleMap:PersistentLevel' has LevelScriptBlueprint '/Game/FirstPersonBP/Maps/FirstPersonExampleMap.FirstPersonExampleMap:PersistentLevel.FirstPersonExampleMap' with GeneratedClass '/Game/FirstPersonBP/Maps/FirstPersonExampleMap.FirstPersonExampleMap_C' with ClassGeneratedBy '/Game/FirstPersonBP/Maps/FirstPersonExampleMap.FirstPersonExampleMap:PersistentLevel.FirstPersonExampleMap'
[2017.07.08-09.07.56:410][998]PIE:Warning: Warning The widget 'PickupText_C' was already added to the screen.
[2017.07.08-09.07.56:444][999]PIE:Warning: Warning The widget 'PickupText_C' was already added to the screen.
[2017.07.08-09.07.57:965][ 44]PIE:Warning: Warning The widget 'PickupText_C' was already added to the screen.
[2017.07.08-09.07.57:998][ 45]PIE:Warning: Warning The widget 'PickupText_C' was already added to the screen.
[2017.07.08-09.08.00:834][130]LogBlueprintUserMessages: Early EndPlayMap Detection: Level '/Game/FirstPersonBP/Maps/FirstPersonExampleMap.FirstPersonExampleMap:PersistentLevel' has LevelScriptBlueprint '/Game/FirstPersonBP/Maps/FirstPersonExampleMap.FirstPersonExampleMap:PersistentLevel.FirstPersonExampleMap' with GeneratedClass '/Game/FirstPersonBP/Maps/FirstPersonExampleMap.FirstPersonExampleMap_C' with ClassGeneratedBy '/Game/FirstPersonBP/Maps/FirstPersonExampleMap.FirstPersonExampleMap:PersistentLevel.FirstPersonExampleMap'
[2017.07.08-09.08.00:914][130]LogBlueprintUserMessages: Late EndPlayMap Detection: Level '/Game/FirstPersonBP/Maps/FirstPersonExampleMap.FirstPersonExampleMap:PersistentLevel' has LevelScriptBlueprint '/Game/FirstPersonBP/Maps/FirstPersonExampleMap.FirstPersonExampleMap:PersistentLevel.FirstPersonExampleMap' with GeneratedClass '/Game/FirstPersonBP/Maps/FirstPersonExampleMap.FirstPersonExampleMap_C' with ClassGeneratedBy '/Game/FirstPersonBP/Maps/FirstPersonExampleMap.FirstPersonExampleMap:PersistentLevel.FirstPersonExampleMap'
[2017.07.08-09.08.02:945][248]LogEditorTransaction: Undo Create Pin Link
[2017.07.08-09.15.04:036][887]LogFileHelpers: Editor autosave (incl. sublevels) for '/Game/FirstPersonBP/Maps/FirstPersonExampleMap' took 0.280
[2017.07.08-09.15.04:043][887]OBJ SavePackage: Generating thumbnails for [0] asset(s) in package [/Game/UMG/GameHUD] ([1] browsable assets)...
[2017.07.08-09.15.04:043][887]OBJ SavePackage: Finished generating thumbnails for package [/Game/UMG/GameHUD]
[2017.07.08-09.15.04:043][887]Cmd: OBJ SAVEPACKAGE PACKAGE="/Game/UMG/GameHUD" FILE="D:/admin/Documents/Unreal Projects/inventoryWithUMG/Saved/Autosaves/Game/UMG/GameHUD_Auto4.uasset" SILENT=false AUTOSAVING=true
[2017.07.08-09.15.04:492][887]LogSavePackage: Save=227.94ms
[2017.07.08-09.15.04:492][887]LogSavePackage: Moving 'D:/admin/Documents/Unreal Projects/inventoryWithUMG/Saved/GameHUD_Auto461AF19D047F1BC8D4D7D239E1840A107.tmp' to 'D:/admin/Documents/Unreal Projects/inventoryWithUMG/Saved/Autosaves/Game/UMG/GameHUD_Auto4.uasset'
[2017.07.08-09.15.04:607][887]LogSavePackage:Display: Finished SavePackage D:/admin/Documents/Unreal Projects/inventoryWithUMG/Saved/Autosaves/Game/UMG/GameHUD_Auto4.uasset
[2017.07.08-09.15.04:608][887]LogFileHelpers: Auto-saving content packages took 0.569
[2017.07.08-09.15.12:140][954]LogTemp: Repeting last play command: Selected Viewport
[2017.07.08-09.15.12:186][954]LogBlueprintUserMessages: Early PlayInEditor Detection: Level '/Game/FirstPersonBP/Maps/FirstPersonExampleMap.FirstPersonExampleMap:PersistentLevel' has LevelScriptBlueprint '/Game/FirstPersonBP/Maps/FirstPersonExampleMap.FirstPersonExampleMap:PersistentLevel.FirstPersonExampleMap' with GeneratedClass '/Game/FirstPersonBP/Maps/FirstPersonExampleMap.FirstPersonExampleMap_C' with ClassGeneratedBy '/Game/FirstPersonBP/Maps/FirstPersonExampleMap.FirstPersonExampleMap:PersistentLevel.FirstPersonExampleMap'
[2017.07.08-09.15.12:187][954]BlueprintLog: New page: Pre-Play auto-recompile
[2017.07.08-09.15.12:187][954]LogPlayLevel: [PlayLevel] Compiling GameHUD before play...
[2017.07.08-09.15.12:518][954]Cmd: OBJ SAVEPACKAGE PACKAGE="/Game/UMG/GameHUD" FILE="D:/admin/Documents/Unreal Projects/inventoryWithUMG/Content/UMG/GameHUD.uasset" SILENT=true
[2017.07.08-09.15.12:732][954]LogSavePackage: Save=209.40ms
[2017.07.08-09.15.12:732][954]LogSavePackage: Moving 'D:/admin/Documents/Unreal Projects/inventoryWithUMG/Saved/GameHUD91391CD947E457DF77F50A88556E01A3.tmp' to 'D:/admin/Documents/Unreal Projects/inventoryWithUMG/Content/UMG/GameHUD.uasset'
[2017.07.08-09.15.12:736][954]LogSavePackage:Display: Finished SavePackage D:/admin/Documents/Unreal Projects/inventoryWithUMG/Content/UMG/GameHUD.uasset
[2017.07.08-09.15.12:801][954]LogPlayLevel: PlayLevel: Blueprint regeneration took 614 ms (1 blueprints)
[2017.07.08-09.15.12:801][954]PIE: New page: PIE session: FirstPersonExampleMap (Jul 9, 2017, 1:15:12 AM)
[2017.07.08-09.15.12:801][954]LogPlayLevel: Creating play world package: /Game/FirstPersonBP/Maps/UEDPIE_0_FirstPersonExampleMap
[2017.07.08-09.15.12:865][954]LogPlayLevel: PIE: StaticDuplicateObject took: (0.063195s)
[2017.07.08-09.15.12:871][954]LogAIModule: Creating AISystem for world FirstPersonExampleMap
[2017.07.08-09.15.12:872][954]LogPlayLevel: PIE: World Init took: (0.007479s)
[2017.07.08-09.15.12:873][954]LogPlayLevel: PIE: Created PIE world by copying editor world from /Game/FirstPersonBP/Maps/FirstPersonExampleMap.FirstPersonExampleMap to /Game/FirstPersonBP/Maps/UEDPIE_0_FirstPersonExampleMap.FirstPersonExampleMap (0.071360s)
[2017.07.08-09.15.12:935][954]LogInit: XAudio2 using '扬声器 (Realtek High Definition Audio)' : 2 channels at 48 kHz using 32 bits per sample (channel mask 0x3)
[2017.07.08-09.15.12:968][954]LogInit: FAudioDevice initialized.
[2017.07.08-09.15.13:029][954]LogLoad: Game class is 'FirstPersonGameMode_C'
[2017.07.08-09.15.13:040][954]LogWorld: Bringing World /Game/FirstPersonBP/Maps/UEDPIE_0_FirstPersonExampleMap.FirstPersonExampleMap up for play (max tick rate 60) at 2017.07.08-17.15.13
[2017.07.08-09.15.13:041][954]LogWorld: Bringing up level for play took: 0.010409
[2017.07.08-09.15.13:054][954]PIE: Info Play in editor start time for /Game/FirstPersonBP/Maps/UEDPIE_0_FirstPersonExampleMap 0.91
[2017.07.08-09.15.13:055][954]LogBlueprintUserMessages: Late PlayInEditor Detection: Level '/Game/FirstPersonBP/Maps/FirstPersonExampleMap.FirstPersonExampleMap:PersistentLevel' has LevelScriptBlueprint '/Game/FirstPersonBP/Maps/FirstPersonExampleMap.FirstPersonExampleMap:PersistentLevel.FirstPersonExampleMap' with GeneratedClass '/Game/FirstPersonBP/Maps/FirstPersonExampleMap.FirstPersonExampleMap_C' with ClassGeneratedBy '/Game/FirstPersonBP/Maps/FirstPersonExampleMap.FirstPersonExampleMap:PersistentLevel.FirstPersonExampleMap'
[2017.07.08-09.15.15:447][ 22]PIE:Warning: Warning The widget 'PickupText_C' was already added to the screen.
[2017.07.08-09.15.15:482][ 23]PIE:Warning: Warning The widget 'PickupText_C' was already added to the screen.
[2017.07.08-09.15.16:932][ 66]PIE:Warning: Warning The widget 'PickupText_C' was already added to the screen.
[2017.07.08-09.15.16:966][ 67]PIE:Warning: Warning The widget 'PickupText_C' was already added to the screen.
[2017.07.08-09.16.02:148][416]LogBlueprintUserMessages: Early EndPlayMap Detection: Level '/Game/FirstPersonBP/Maps/FirstPersonExampleMap.FirstPersonExampleMap:PersistentLevel' has LevelScriptBlueprint '/Game/FirstPersonBP/Maps/FirstPersonExampleMap.FirstPersonExampleMap:PersistentLevel.FirstPersonExampleMap' with GeneratedClass '/Game/FirstPersonBP/Maps/FirstPersonExampleMap.FirstPersonExampleMap_C' with ClassGeneratedBy '/Game/FirstPersonBP/Maps/FirstPersonExampleMap.FirstPersonExampleMap:PersistentLevel.FirstPersonExampleMap'
[2017.07.08-09.16.02:231][416]LogBlueprintUserMessages: Late EndPlayMap Detection: Level '/Game/FirstPersonBP/Maps/FirstPersonExampleMap.FirstPersonExampleMap:PersistentLevel' has LevelScriptBlueprint '/Game/FirstPersonBP/Maps/FirstPersonExampleMap.FirstPersonExampleMap:PersistentLevel.FirstPersonExampleMap' with GeneratedClass '/Game/FirstPersonBP/Maps/FirstPersonExampleMap.FirstPersonExampleMap_C' with ClassGeneratedBy '/Game/FirstPersonBP/Maps/FirstPersonExampleMap.FirstPersonExampleMap:PersistentLevel.FirstPersonExampleMap'
[2017.07.08-09.21.13:413][271]LogTemp: Repeting last play command: Selected Viewport
[2017.07.08-09.21.13:599][271]LogBlueprintUserMessages: Early PlayInEditor Detection: Level '/Game/FirstPersonBP/Maps/FirstPersonExampleMap.FirstPersonExampleMap:PersistentLevel' has LevelScriptBlueprint '/Game/FirstPersonBP/Maps/FirstPersonExampleMap.FirstPersonExampleMap:PersistentLevel.FirstPersonExampleMap' with GeneratedClass '/Game/FirstPersonBP/Maps/FirstPersonExampleMap.FirstPersonExampleMap_C' with ClassGeneratedBy '/Game/FirstPersonBP/Maps/FirstPersonExampleMap.FirstPersonExampleMap:PersistentLevel.FirstPersonExampleMap'
[2017.07.08-09.21.13:599][271]LogPlayLevel: PlayLevel: No blueprints needed recompiling
[2017.07.08-09.21.13:600][271]PIE: New page: PIE session: FirstPersonExampleMap (Jul 9, 2017, 1:21:13 AM)
[2017.07.08-09.21.13:601][271]LogPlayLevel: Creating play world package: /Game/FirstPersonBP/Maps/UEDPIE_0_FirstPersonExampleMap
[2017.07.08-09.21.13:661][271]LogPlayLevel: PIE: StaticDuplicateObject took: (0.059010s)
[2017.07.08-09.21.13:669][271]LogAIModule: Creating AISystem for world FirstPersonExampleMap
[2017.07.08-09.21.13:671][271]LogPlayLevel: PIE: World Init took: (0.010357s)
[2017.07.08-09.21.13:672][271]LogPlayLevel: PIE: Created PIE world by copying editor world from /Game/FirstPersonBP/Maps/FirstPersonExampleMap.FirstPersonExampleMap to /Game/FirstPersonBP/Maps/UEDPIE_0_FirstPersonExampleMap.FirstPersonExampleMap (0.070909s)
[2017.07.08-09.21.13:819][271]LogInit: XAudio2 using '扬声器 (Realtek High Definition Audio)' : 2 channels at 48 kHz using 32 bits per sample (channel mask 0x3)
[2017.07.08-09.21.13:867][271]LogInit: FAudioDevice initialized.
[2017.07.08-09.21.13:929][271]LogLoad: Game class is 'FirstPersonGameMode_C'
[2017.07.08-09.21.13:940][271]LogWorld: Bringing World /Game/FirstPersonBP/Maps/UEDPIE_0_FirstPersonExampleMap.FirstPersonExampleMap up for play (max tick rate 60) at 2017.07.08-17.21.13
[2017.07.08-09.21.13:941][271]LogWorld: Bringing up level for play took: 0.009876
[2017.07.08-09.21.13:955][271]PIE: Info Play in editor start time for /Game/FirstPersonBP/Maps/UEDPIE_0_FirstPersonExampleMap -0.189
[2017.07.08-09.21.13:956][271]LogBlueprintUserMessages: Late PlayInEditor Detection: Level '/Game/FirstPersonBP/Maps/FirstPersonExampleMap.FirstPersonExampleMap:PersistentLevel' has LevelScriptBlueprint '/Game/FirstPersonBP/Maps/FirstPersonExampleMap.FirstPersonExampleMap:PersistentLevel.FirstPersonExampleMap' with GeneratedClass '/Game/FirstPersonBP/Maps/FirstPersonExampleMap.FirstPersonExampleMap_C' with ClassGeneratedBy '/Game/FirstPersonBP/Maps/FirstPersonExampleMap.FirstPersonExampleMap:PersistentLevel.FirstPersonExampleMap'
[2017.07.08-09.21.15:516][315]PIE:Warning: Warning The widget 'PickupText_C' was already added to the screen.
[2017.07.08-09.21.15:550][316]PIE:Warning: Warning The widget 'PickupText_C' was already added to the screen.
[2017.07.08-09.21.26:739][653]LogBlueprintUserMessages: Early EndPlayMap Detection: Level '/Game/FirstPersonBP/Maps/FirstPersonExampleMap.FirstPersonExampleMap:PersistentLevel' has LevelScriptBlueprint '/Game/FirstPersonBP/Maps/FirstPersonExampleMap.FirstPersonExampleMap:PersistentLevel.FirstPersonExampleMap' with GeneratedClass '/Game/FirstPersonBP/Maps/FirstPersonExampleMap.FirstPersonExampleMap_C' with ClassGeneratedBy '/Game/FirstPersonBP/Maps/FirstPersonExampleMap.FirstPersonExampleMap:PersistentLevel.FirstPersonExampleMap'
[2017.07.08-09.21.26:832][653]LogBlueprintUserMessages: Late EndPlayMap Detection: Level '/Game/FirstPersonBP/Maps/FirstPersonExampleMap.FirstPersonExampleMap:PersistentLevel' has LevelScriptBlueprint '/Game/FirstPersonBP/Maps/FirstPersonExampleMap.FirstPersonExampleMap:PersistentLevel.FirstPersonExampleMap' with GeneratedClass '/Game/FirstPersonBP/Maps/FirstPersonExampleMap.FirstPersonExampleMap_C' with ClassGeneratedBy '/Game/FirstPersonBP/Maps/FirstPersonExampleMap.FirstPersonExampleMap:PersistentLevel.FirstPersonExampleMap'
[2017.07.08-09.28.42:085][587]LogTemp: Repeting last play command: Selected Viewport
[2017.07.08-09.28.42:115][587]LogBlueprintUserMessages: Early PlayInEditor Detection: Level '/Game/FirstPersonBP/Maps/FirstPersonExampleMap.FirstPersonExampleMap:PersistentLevel' has LevelScriptBlueprint '/Game/FirstPersonBP/Maps/FirstPersonExampleMap.FirstPersonExampleMap:PersistentLevel.FirstPersonExampleMap' with GeneratedClass '/Game/FirstPersonBP/Maps/FirstPersonExampleMap.FirstPersonExampleMap_C' with ClassGeneratedBy '/Game/FirstPersonBP/Maps/FirstPersonExampleMap.FirstPersonExampleMap:PersistentLevel.FirstPersonExampleMap'
[2017.07.08-09.28.42:115][587]BlueprintLog: New page: Pre-Play auto-recompile
[2017.07.08-09.28.42:115][587]LogPlayLevel: [PlayLevel] Compiling GameHUD before play...
[2017.07.08-09.28.42:459][587]Cmd: OBJ SAVEPACKAGE PACKAGE="/Game/UMG/GameHUD" FILE="D:/admin/Documents/Unreal Projects/inventoryWithUMG/Content/UMG/GameHUD.uasset" SILENT=true
[2017.07.08-09.28.42:677][587]LogSavePackage: Save=207.45ms
[2017.07.08-09.28.42:677][587]LogSavePackage: Moving 'D:/admin/Documents/Unreal Projects/inventoryWithUMG/Saved/GameHUD314ECB26494A43C3C29E7487BE20BBEE.tmp' to 'D:/admin/Documents/Unreal Projects/inventoryWithUMG/Content/UMG/GameHUD.uasset'
[2017.07.08-09.28.42:680][587]LogSavePackage:Display: Finished SavePackage D:/admin/Documents/Unreal Projects/inventoryWithUMG/Content/UMG/GameHUD.uasset
[2017.07.08-09.28.42:740][587]LogPlayLevel: PlayLevel: Blueprint regeneration took 625 ms (1 blueprints)
[2017.07.08-09.28.42:740][587]PIE: New page: PIE session: FirstPersonExampleMap (Jul 9, 2017, 1:28:42 AM)
[2017.07.08-09.28.42:740][587]LogPlayLevel: Creating play world package: /Game/FirstPersonBP/Maps/UEDPIE_0_FirstPersonExampleMap
[2017.07.08-09.28.42:810][587]LogPlayLevel: PIE: StaticDuplicateObject took: (0.069349s)
[2017.07.08-09.28.42:812][587]LogAIModule: Creating AISystem for world FirstPersonExampleMap
[2017.07.08-09.28.42:812][587]LogPlayLevel: PIE: World Init took: (0.002415s)
[2017.07.08-09.28.42:813][587]LogPlayLevel: PIE: Created PIE world by copying editor world from /Game/FirstPersonBP/Maps/FirstPersonExampleMap.FirstPersonExampleMap to /Game/FirstPersonBP/Maps/UEDPIE_0_FirstPersonExampleMap.FirstPersonExampleMap (0.072096s)
[2017.07.08-09.28.42:852][587]LogInit: XAudio2 using '扬声器 (Realtek High Definition Audio)' : 2 channels at 48 kHz using 32 bits per sample (channel mask 0x3)
[2017.07.08-09.28.42:870][587]LogInit: FAudioDevice initialized.
[2017.07.08-09.28.42:925][587]LogLoad: Game class is 'FirstPersonGameMode_C'
[2017.07.08-09.28.42:930][587]LogWorld: Bringing World /Game/FirstPersonBP/Maps/UEDPIE_0_FirstPersonExampleMap.FirstPersonExampleMap up for play (max tick rate 60) at 2017.07.08-17.28.42
[2017.07.08-09.28.42:931][587]LogWorld: Bringing up level for play took: 0.004297
[2017.07.08-09.28.42:940][587]PIE: Info Play in editor start time for /Game/FirstPersonBP/Maps/UEDPIE_0_FirstPersonExampleMap 0.796
[2017.07.08-09.28.42:940][587]LogBlueprintUserMessages: Late PlayInEditor Detection: Level '/Game/FirstPersonBP/Maps/FirstPersonExampleMap.FirstPersonExampleMap:PersistentLevel' has LevelScriptBlueprint '/Game/FirstPersonBP/Maps/FirstPersonExampleMap.FirstPersonExampleMap:PersistentLevel.FirstPersonExampleMap' with GeneratedClass '/Game/FirstPersonBP/Maps/FirstPersonExampleMap.FirstPersonExampleMap_C' with ClassGeneratedBy '/Game/FirstPersonBP/Maps/FirstPersonExampleMap.FirstPersonExampleMap:PersistentLevel.FirstPersonExampleMap'
[2017.07.08-09.28.48:442][749]LogBlueprintUserMessages: Early EndPlayMap Detection: Level '/Game/FirstPersonBP/Maps/FirstPersonExampleMap.FirstPersonExampleMap:PersistentLevel' has LevelScriptBlueprint '/Game/FirstPersonBP/Maps/FirstPersonExampleMap.FirstPersonExampleMap:PersistentLevel.FirstPersonExampleMap' with GeneratedClass '/Game/FirstPersonBP/Maps/FirstPersonExampleMap.FirstPersonExampleMap_C' with ClassGeneratedBy '/Game/FirstPersonBP/Maps/FirstPersonExampleMap.FirstPersonExampleMap:PersistentLevel.FirstPersonExampleMap'
[2017.07.08-09.28.48:523][749]LogBlueprintUserMessages: Late EndPlayMap Detection: Level '/Game/FirstPersonBP/Maps/FirstPersonExampleMap.FirstPersonExampleMap:PersistentLevel' has LevelScriptBlueprint '/Game/FirstPersonBP/Maps/FirstPersonExampleMap.FirstPersonExampleMap:PersistentLevel.FirstPersonExampleMap' with GeneratedClass '/Game/FirstPersonBP/Maps/FirstPersonExampleMap.FirstPersonExampleMap_C' with ClassGeneratedBy '/Game/FirstPersonBP/Maps/FirstPersonExampleMap.FirstPersonExampleMap:PersistentLevel.FirstPersonExampleMap'
[2017.07.08-09.28.51:001][893]LogTemp: Repeting last play command: Selected Viewport
[2017.07.08-09.28.51:026][893]LogBlueprintUserMessages: Early PlayInEditor Detection: Level '/Game/FirstPersonBP/Maps/FirstPersonExampleMap.FirstPersonExampleMap:PersistentLevel' has LevelScriptBlueprint '/Game/FirstPersonBP/Maps/FirstPersonExampleMap.FirstPersonExampleMap:PersistentLevel.FirstPersonExampleMap' with GeneratedClass '/Game/FirstPersonBP/Maps/FirstPersonExampleMap.FirstPersonExampleMap_C' with ClassGeneratedBy '/Game/FirstPersonBP/Maps/FirstPersonExampleMap.FirstPersonExampleMap:PersistentLevel.FirstPersonExampleMap'
[2017.07.08-09.28.51:026][893]LogPlayLevel: PlayLevel: No blueprints needed recompiling
[2017.07.08-09.28.51:026][893]PIE: New page: PIE session: FirstPersonExampleMap (Jul 9, 2017, 1:28:51 AM)
[2017.07.08-09.28.51:026][893]LogPlayLevel: Creating play world package: /Game/FirstPersonBP/Maps/UEDPIE_0_FirstPersonExampleMap
[2017.07.08-09.28.51:051][893]LogPlayLevel: PIE: StaticDuplicateObject took: (0.025186s)
[2017.07.08-09.28.51:091][893]LogAIModule: Creating AISystem for world FirstPersonExampleMap
[2017.07.08-09.28.51:091][893]LogPlayLevel: PIE: World Init took: (0.040266s)
[2017.07.08-09.28.51:092][893]LogPlayLevel: PIE: Created PIE world by copying editor world from /Game/FirstPersonBP/Maps/FirstPersonExampleMap.FirstPersonExampleMap to /Game/FirstPersonBP/Maps/UEDPIE_0_FirstPersonExampleMap.FirstPersonExampleMap (0.065843s)
[2017.07.08-09.28.51:167][893]LogInit: XAudio2 using '扬声器 (Realtek High Definition Audio)' : 2 channels at 48 kHz using 32 bits per sample (channel mask 0x3)
[2017.07.08-09.28.51:182][893]LogInit: FAudioDevice initialized.
[2017.07.08-09.28.51:255][893]LogLoad: Game class is 'FirstPersonGameMode_C'
[2017.07.08-09.28.51:262][893]LogWorld: Bringing World /Game/FirstPersonBP/Maps/UEDPIE_0_FirstPersonExampleMap.FirstPersonExampleMap up for play (max tick rate 60) at 2017.07.08-17.28.51
[2017.07.08-09.28.51:262][893]LogWorld: Bringing up level for play took: 0.006241
[2017.07.08-09.28.51:272][893]PIE: Info Play in editor start time for /Game/FirstPersonBP/Maps/UEDPIE_0_FirstPersonExampleMap 1.128
[2017.07.08-09.28.51:272][893]LogBlueprintUserMessages: Late PlayInEditor Detection: Level '/Game/FirstPersonBP/Maps/FirstPersonExampleMap.FirstPersonExampleMap:PersistentLevel' has LevelScriptBlueprint '/Game/FirstPersonBP/Maps/FirstPersonExampleMap.FirstPersonExampleMap:PersistentLevel.FirstPersonExampleMap' with GeneratedClass '/Game/FirstPersonBP/Maps/FirstPersonExampleMap.FirstPersonExampleMap_C' with ClassGeneratedBy '/Game/FirstPersonBP/Maps/FirstPersonExampleMap.FirstPersonExampleMap:PersistentLevel.FirstPersonExampleMap'
[2017.07.08-09.28.52:749][935]PIE:Warning: Warning The widget 'PickupText_C' was already added to the screen.
[2017.07.08-09.28.52:782][936]PIE:Warning: Warning The widget 'PickupText_C' was already added to the screen.
[2017.07.08-09.28.55:585][ 19]LogBlueprintUserMessages: [GameHUD_C_5] 0
[2017.07.08-09.28.56:656][ 53]LogBlueprintUserMessages: Early EndPlayMap Detection: Level '/Game/FirstPersonBP/Maps/FirstPersonExampleMap.FirstPersonExampleMap:PersistentLevel' has LevelScriptBlueprint '/Game/FirstPersonBP/Maps/FirstPersonExampleMap.FirstPersonExampleMap:PersistentLevel.FirstPersonExampleMap' with GeneratedClass '/Game/FirstPersonBP/Maps/FirstPersonExampleMap.FirstPersonExampleMap_C' with ClassGeneratedBy '/Game/FirstPersonBP/Maps/FirstPersonExampleMap.FirstPersonExampleMap:PersistentLevel.FirstPersonExampleMap'
[2017.07.08-09.28.56:739][ 53]LogBlueprintUserMessages: Late EndPlayMap Detection: Level '/Game/FirstPersonBP/Maps/FirstPersonExampleMap.FirstPersonExampleMap:PersistentLevel' has LevelScriptBlueprint '/Game/FirstPersonBP/Maps/FirstPersonExampleMap.FirstPersonExampleMap:PersistentLevel.FirstPersonExampleMap' with GeneratedClass '/Game/FirstPersonBP/Maps/FirstPersonExampleMap.FirstPersonExampleMap_C' with ClassGeneratedBy '/Game/FirstPersonBP/Maps/FirstPersonExampleMap.FirstPersonExampleMap:PersistentLevel.FirstPersonExampleMap'
[2017.07.08-09.29.00:073][243]LogEditorTransaction: Undo Create Pin Link
[2017.07.08-09.29.00:810][274]LogEditorTransaction: Undo Add Node
[2017.07.08-09.29.44:419][246]LogFileHelpers: Editor autosave (incl. sublevels) for '/Game/FirstPersonBP/Maps/FirstPersonExampleMap' took 0.047
[2017.07.08-09.29.44:421][246]OBJ SavePackage: Generating thumbnails for [0] asset(s) in package [/Game/UMG/GameHUD] ([1] browsable assets)...
[2017.07.08-09.29.44:421][246]OBJ SavePackage: Finished generating thumbnails for package [/Game/UMG/GameHUD]
[2017.07.08-09.29.44:421][246]Cmd: OBJ SAVEPACKAGE PACKAGE="/Game/UMG/GameHUD" FILE="D:/admin/Documents/Unreal Projects/inventoryWithUMG/Saved/Autosaves/Game/UMG/GameHUD_Auto5.uasset" SILENT=false AUTOSAVING=true
[2017.07.08-09.29.44:649][246]LogSavePackage: Save=222.90ms
[2017.07.08-09.29.44:649][246]LogSavePackage: Moving 'D:/admin/Documents/Unreal Projects/inventoryWithUMG/Saved/GameHUD_Auto5604094ED4134E1E681BE4A9807700BEE.tmp' to 'D:/admin/Documents/Unreal Projects/inventoryWithUMG/Saved/Autosaves/Game/UMG/GameHUD_Auto5.uasset'
[2017.07.08-09.29.44:692][246]LogSavePackage:Display: Finished SavePackage D:/admin/Documents/Unreal Projects/inventoryWithUMG/Saved/Autosaves/Game/UMG/GameHUD_Auto5.uasset
[2017.07.08-09.29.44:692][246]LogFileHelpers: Auto-saving content packages took 0.272
[2017.07.08-09.41.14:389][914]LogSlate: Took 0.009403 seconds to synchronously load lazily loaded font '../../../Engine/Content/Slate/Fonts/Roboto-Regular.ttf' (155K)
[2017.07.08-09.50.17:267][834]LogUObjectArray:Warning: Invalid object index -572662307
[2017.07.08-09.50.22:984][834]LogStats: FPlatformStackWalk::StackWalkAndDump -  5.684 s
[2017.07.08-09.50.22:984][834]LogOutputDevice:Error: === Handled ensure: ===
[2017.07.08-09.50.22:984][834]LogOutputDevice:Error: 
[2017.07.08-09.50.22:984][834]LogOutputDevice:Error: Ensure condition failed: false [File:D:\Build\++UE4+Release-4.16+Compile\Sync\Engine\Source\Editor\UnrealEd\Private\Kismet2\KismetDebugUtilities.cpp] [Line: 1037]
[2017.07.08-09.50.22:984][834]LogOutputDevice:Error: Error: Invalid (but non-null) property associated with pin; cannot get variable value
[2017.07.08-09.50.22:984][834]LogOutputDevice:Error: Stack: 
[2017.07.08-09.50.22:984][834]LogOutputDevice:Error: UE4Editor-Core.dll!0x000000008391E1C6
[2017.07.08-09.50.22:984][834]LogOutputDevice:Error: UE4Editor-Core.dll!0x00000000836CB7D2
[2017.07.08-09.50.22:984][834]LogOutputDevice:Error: UE4Editor-Core.dll!0x00000000836E1D96
[2017.07.08-09.50.22:984][834]LogOutputDevice:Error: UE4Editor-UnrealEd.dll!0x000000007E5072D6
[2017.07.08-09.50.22:984][834]LogOutputDevice:Error: UE4Editor-BlueprintGraph.dll!0x000000007B88D27B
[2017.07.08-09.50.22:984][834]LogOutputDevice:Error: UE4Editor-GraphEditor.dll!0x0000000079F524EA
[2017.07.08-09.50.22:984][834]LogOutputDevice:Error: UE4Editor-GraphEditor.dll!0x0000000079DF72CC
[2017.07.08-09.50.22:984][834]LogOutputDevice:Error: UE4Editor-GraphEditor.dll!0x0000000079DFA6D9
[2017.07.08-09.50.22:984][834]LogOutputDevice:Error: UE4Editor-GraphEditor.dll!0x0000000079F180A5
[2017.07.08-09.50.22:984][834]LogOutputDevice:Error: UE4Editor-Slate.dll!0x000000008303DB57
[2017.07.08-09.50.22:984][834]LogOutputDevice:Error: UE4Editor-Slate.dll!0x0000000083044B61
[2017.07.08-09.50.22:984][834]LogOutputDevice:Error: UE4Editor-Slate.dll!0x00000000832648D3
[2017.07.08-09.50.22:984][834]LogOutputDevice:Error: UE4Editor-Slate.dll!0x000000008309F604
[2017.07.08-09.50.22:984][834]LogOutputDevice:Error: UE4Editor-Slate.dll!0x0000000083099170
[2017.07.08-09.50.22:984][834]LogOutputDevice:Error: UE4Editor-Slate.dll!0x0000000083098A55
[2017.07.08-09.50.22:984][834]LogOutputDevice:Error: UE4Editor.exe!0x000000005A87ED59
[2017.07.08-09.50.22:984][834]LogOutputDevice:Error: UE4Editor.exe!0x000000005A86F0B0
[2017.07.08-09.50.22:984][834]LogOutputDevice:Error: UE4Editor.exe!0x000000005A86F12A
[2017.07.08-09.50.22:984][834]LogOutputDevice:Error: UE4Editor.exe!0x000000005A880CF9
[2017.07.08-09.50.22:984][834]LogOutputDevice:Error: UE4Editor.exe!0x000000005A8825F7
[2017.07.08-09.50.22:984][834]LogOutputDevice:Error: KERNEL32.DLL!0x00000000CF962774
[2017.07.08-09.50.22:984][834]LogOutputDevice:Error: ntdll.dll!0x00000000D0190D51
[2017.07.08-09.50.22:984][834]LogOutputDevice:Error: 
[2017.07.08-09.50.23:004][834]LogStats:                SubmitErrorReport -  0.019 s
